<?xml version="1.0" encoding="UTF-8" standalone="no"?>
<svg
   xmlns:dc="http://purl.org/dc/elements/1.1/"
   xmlns:cc="http://creativecommons.org/ns#"
   xmlns:rdf="http://www.w3.org/1999/02/22-rdf-syntax-ns#"
   xmlns:svg="http://www.w3.org/2000/svg"
   xmlns="http://www.w3.org/2000/svg"
   viewBox="0 0 140 150.66667"
   height="150.66667"
   width="140"
   xml:space="preserve"
   version="1.1"
   id="svg2"><metadata
     id="metadata8"><rdf:RDF><cc:Work
         rdf:about=""><dc:format>image/svg+xml</dc:format><dc:type
           rdf:resource="http://purl.org/dc/dcmitype/StillImage" /></cc:Work></rdf:RDF></metadata><defs
     id="defs6"><clipPath
       id="clipPath16"
       clipPathUnits="userSpaceOnUse"><path
         id="path18"
         d="M 0,113 105,113 105,0 0,0 0,113 Z" /></clipPath></defs><g
     transform="matrix(1.3333333,0,0,-1.3333333,0,150.66667)"
     id="g10"><g
       id="g12"><g
         clip-path="url(#clipPath16)"
         id="g14"><g
           transform="translate(49.257,57.5338)"
           id="g20"><path
             id="path22"
             style="fill:#ffffff;fill-opacity:1;fill-rule:nonzero;stroke:none"
             d="m 0,0 8.417,-17.583 c 0,0 8.361,17.5 8.138,17.583 C 16.333,0.083 0,0 0,0" /></g><g
           transform="translate(53.0533,110.1342)"
           id="g24"><path
             id="path26"
             style="fill:#ffffff;fill-opacity:1;fill-rule:nonzero;stroke:none"
             d="m 0,0 -22.237,-54.012 44.621,0 L 0,0 Z" /></g><g
           transform="translate(47.5601,82.2568)"
           id="g28"><path
             id="path30"
             style="fill:#181918;fill-opacity:1;fill-rule:nonzero;stroke:none"
             d="m 0,0 c 1.332,-1.498 2.83,-2.996 4.162,-4.494 0,0 0.166,0 0.166,0.166 l 0,9.322 2.497,0 0,-9.488 c 1.997,1.664 3.829,3.162 5.66,4.66 0.499,-0.665 0.998,-1.331 1.498,-1.831 C 11.652,-3.496 9.322,-5.493 7.158,-7.324 6.991,-7.491 6.825,-7.824 6.825,-8.157 l 0,-3.495 0,-1.665 c 1.997,1.665 3.829,3.163 5.66,4.661 0.499,-0.666 0.998,-1.332 1.498,-1.831 -2.331,-1.998 -4.661,-3.829 -6.825,-5.66 -0.167,-0.166 -0.333,-0.499 -0.333,-0.832 l 0,-5.16 0,-1.166 18.644,0 C 18.81,-7.324 12.152,8.49 5.493,24.47 -1.165,8.49 -7.824,-7.324 -14.482,-23.305 l 18.644,0 0,6.492 c 0,0.167 -0.167,0.333 -0.167,0.333 -1.165,0.999 -2.33,1.998 -3.662,2.997 -1.165,0.998 -2.331,1.997 -3.496,2.829 0.5,0.666 0.999,1.332 1.498,1.832 1.998,-1.499 3.829,-3.163 5.827,-4.828 l 0,5.16 c 0,0.333 -0.167,0.666 -0.333,0.999 -1.831,1.831 -3.663,3.496 -5.494,5.327 -0.166,0.166 -0.166,0.333 -0.333,0.499 C -1.332,-1.498 -0.832,-0.832 0,0 m 4.328,-35.123 0,8.989 -22.472,0 c 7.823,18.81 15.814,37.786 23.637,56.596 7.824,-18.976 15.814,-37.62 23.638,-56.596 l -22.14,0 -0.166,0 0,-8.989 c -0.812,0 -1.665,0 -2.497,0" /></g><g
           transform="translate(77.946,87.2439)"
           id="g32"><path
             id="path34"
             style="fill:#ffffff;fill-opacity:1;fill-rule:nonzero;stroke:none"
             d="m 0,0 -24.533,-60.072 49.316,0 L 0,0 Z" /></g><g
           transform="translate(79.4506,30.369)"
           id="g36"><path
             id="path38"
             style="fill:#181918;fill-opacity:1;fill-rule:nonzero;stroke:none"
             d="m 0,0 0,1.317 0,5.83 c 0,0.376 0.188,0.752 0.376,0.94 2.445,2.069 5.078,4.138 7.711,6.395 C 7.523,15.046 6.959,15.798 6.395,16.551 4.326,14.858 2.257,13.165 0,11.284 l 0,1.881 0,3.95 c 0,0.376 0.188,0.752 0.376,0.94 2.445,2.069 5.078,4.326 7.711,6.395 C 7.523,25.014 6.959,25.766 6.395,26.519 4.326,24.826 2.257,23.133 0,21.252 l 0,10.721 -2.821,0 0,-10.532 c 0,-0.189 -0.188,-0.189 -0.188,-0.189 -1.505,1.693 -3.197,3.386 -4.702,5.079 -0.94,-0.941 -1.505,-1.693 -2.257,-1.881 0.188,-0.188 0.188,-0.376 0.376,-0.564 2.069,-2.069 4.138,-3.95 6.207,-6.019 0.188,-0.376 0.376,-0.752 0.376,-1.128 l 0,-5.831 c -2.257,1.881 -4.326,3.762 -6.583,5.454 -0.564,-0.564 -1.128,-1.316 -1.692,-2.068 1.316,-0.941 2.633,-2.069 3.949,-3.198 1.505,-1.128 2.821,-2.256 4.138,-3.385 0,0 0.188,-0.188 0.188,-0.376 L -3.009,0 -24.074,0 C -16.551,18.055 -9.028,35.922 -1.505,53.977 6.018,35.922 13.541,18.055 21.064,0 l -18.243,0 0,-3.197 22.381,0 C 16.363,18.243 7.335,39.308 -1.505,60.748 -10.344,39.496 -19.372,18.055 -28.211,-3.197 l 25.39,0 0,-10.156 c 0.94,0 1.903,0 2.821,0 l 0,10.156 0,0 L 0,0 Z" /></g><g
           transform="translate(35.398,92.4505)"
           id="g40"><path
             id="path42"
             style="fill:#ffffff;fill-opacity:1;fill-rule:nonzero;stroke:none"
             d="m 0,0 -32.198,-78.841 64.724,0 L 0,0 Z" /></g><g
           transform="translate(37.3727,17.806)"
           id="g44"><path
             id="path46"
             style="fill:#181918;fill-opacity:1;fill-rule:nonzero;stroke:none"
             d="M 0,0 0,1.728 0,9.38 c 0,0.493 0.247,0.987 0.494,1.234 3.209,2.715 6.664,5.43 10.12,8.392 C 9.873,19.747 9.133,20.734 8.392,21.722 5.677,19.5 2.962,17.279 0,14.81 l 0,2.469 0,5.183 c 0,0.494 0.247,0.987 0.494,1.234 3.209,2.715 6.664,5.677 10.12,8.393 -0.741,0.74 -1.481,1.727 -2.222,2.715 C 5.677,32.582 2.962,30.361 0,27.892 l 0,14.07 -3.703,0 0,-13.823 c 0,-0.247 -0.246,-0.247 -0.246,-0.247 -1.975,2.222 -4.197,4.443 -6.171,6.665 -1.234,-1.234 -1.975,-2.222 -2.962,-2.468 0.247,-0.247 0.247,-0.494 0.493,-0.741 2.716,-2.715 5.431,-5.183 8.146,-7.899 0.247,-0.493 0.494,-0.987 0.494,-1.481 l 0,-7.652 c -2.962,2.469 -5.678,4.937 -8.64,7.159 -0.74,-0.741 -1.481,-1.728 -2.221,-2.715 1.728,-1.235 3.456,-2.716 5.183,-4.197 1.975,-1.481 3.703,-2.962 5.431,-4.443 0,0 0.247,-0.247 0.247,-0.493 l 0,-9.627 -27.646,0 c 9.873,23.696 19.747,47.146 29.62,70.842 C 7.899,47.146 17.772,23.696 27.646,0 l -23.943,0 0,-4.196 29.373,0 C 21.475,23.943 9.627,51.589 -1.975,79.728 -13.576,51.835 -25.424,23.696 -37.025,-4.196 l 33.322,0 0,-13.329 c 1.235,0 2.499,0 3.703,0 l 0,13.329 0,0 L 0,0 Z" /></g></g></g></g></svg>