<?xml version="1.0" encoding="utf-8"?>
<!-- Generator: Adobe Illustrator 18.0.0, SVG Export Plug-In . SVG Version: 6.00 Build 0)  -->
<!DOCTYPE svg PUBLIC "-//W3C//DTD SVG 1.1//EN" "http://www.w3.org/Graphics/SVG/1.1/DTD/svg11.dtd">
<svg version="1.1" id="addon-3" xmlns="http://www.w3.org/2000/svg" xmlns:xlink="http://www.w3.org/1999/xlink" x="0px" y="0px"
	 viewBox="0 0 40 40" enable-background="new 0 0 40 40" xml:space="preserve">
<g>
	<path fill="#FFFFFF" d="M33.7,6.3C30.1,2.6,25.2,0.6,20,0.6c-5.2,0-10.1,2-13.7,5.7c-7.6,7.6-7.6,19.9,0,27.4
		c3.7,3.7,8.5,5.7,13.7,5.7c5.2,0,10.1-2,13.7-5.7c3.7-3.7,5.7-8.5,5.7-13.7C39.4,14.8,37.4,9.9,33.7,6.3z M32.3,32.3
		c-3.3,3.3-7.7,5.1-12.3,5.1s-9-1.8-12.3-5.1c-6.8-6.8-6.8-17.8,0-24.6C11,4.4,15.4,2.6,20,2.6s9,1.8,12.3,5.1
		C39.1,14.5,39.1,25.5,32.3,32.3z"/>
	<polygon fill="#FFFFFF" points="21,8.8 19,8.8 19,19 8.8,19 8.8,21 19,21 19,31.2 21,31.2 21,21 31.2,21 31.2,19 21,19 	"/>
</g>
</svg>
