<?xml version="1.0" encoding="UTF-8" standalone="no"?>
<svg
   xmlns:dc="http://purl.org/dc/elements/1.1/"
   xmlns:cc="http://creativecommons.org/ns#"
   xmlns:rdf="http://www.w3.org/1999/02/22-rdf-syntax-ns#"
   xmlns:svg="http://www.w3.org/2000/svg"
   xmlns="http://www.w3.org/2000/svg"
   viewBox="0 0 53.333332 53.333332"
   height="53.333332"
   width="53.333332"
   xml:space="preserve"
   version="1.1"
   id="svg2"><metadata
     id="metadata8"><rdf:RDF><cc:Work
         rdf:about=""><dc:format>image/svg+xml</dc:format><dc:type
           rdf:resource="http://purl.org/dc/dcmitype/StillImage" /></cc:Work></rdf:RDF></metadata><defs
     id="defs6" /><g
     transform="matrix(1.3333333,0,0,-1.3333333,0,53.333333)"
     id="g10"><g
       transform="scale(0.1)"
       id="g12"><path
         id="path14"
         style="fill:#ffffff;fill-opacity:1;fill-rule:nonzero;stroke:none"
         d="M 247.012,17.4258 126.758,18.0312 C 58.2969,26.7617 17.4141,117.516 17.4141,200.465 c 0,97.676 46.1328,172.203 112.2499,181.469 39.5,0.796 114.344,0.64 118.231,0.64 74.265,0 134.691,-82.199 134.691,-183.23 0,-100.3128 -60.781,-181.9182 -135.574,-181.9182 z M 247.895,400 c -5.059,0 -114.438,-0.559 -119.086,-0.652 l -0.993,-0.075 C 52.5586,389.098 0,307.348 0,200.465 0,95.1953 53.8281,9.30078 125.211,0.65625 L 125.766,0.585938 247.086,0 C 331.406,0 400,89.4258 400,199.344 400,309.988 331.762,400 247.895,400" /><path
         id="path16"
         style="fill:#ffffff;fill-opacity:1;fill-rule:nonzero;stroke:none"
         d="m 258.508,117.023 c -33.504,0 -60.766,36.793 -60.766,82.012 0,45.227 27.262,82.016 60.766,82.016 33.5,0 60.754,-36.789 60.754,-82.016 0,-45.219 -27.254,-82.012 -60.754,-82.012 z m 0,181.454 c -43.113,0 -78.18,-44.61 -78.18,-99.442 0,-54.836 35.067,-99.4412 78.18,-99.4412 43.101,0 78.168,44.6052 78.168,99.4412 0,54.832 -35.067,99.442 -78.168,99.442" /><path
         id="path18"
         style="fill:#ffffff;fill-opacity:1;fill-rule:nonzero;stroke:none"
         d="m 174.93,357.855 -24.879,0 C 115.762,323.004 95.7812,266.953 95.7812,207.238 c 0,-57.207 17.9998,-107.7263 49.9458,-145.6482 l -28.508,0 C 81.9297,96.2422 60.9492,149.027 60.9492,207.238 c 0,62.141 22.9883,124.477 61.6058,150.617 l -24.848,0 C 63.4805,323.004 43.5352,266.953 43.5352,207.238 c 0,-65.242 23.4101,-123.5232 64.2268,-161.8044 l 2.508,-1.2695 c 0,0 39.66,0 50,0 3.875,0 9.656,1.5351 11.718,3.9414 4.336,5.0429 -0.078,11.1289 -0.078,11.1289 -36.769,34.4883 -58.715,88.4566 -58.715,148.0036 0,62.145 23.039,124.477 61.735,150.617" /></g></g></svg>