<?xml version="1.0" encoding="UTF-8" standalone="no"?>
<svg
   xmlns:dc="http://purl.org/dc/elements/1.1/"
   xmlns:cc="http://creativecommons.org/ns#"
   xmlns:rdf="http://www.w3.org/1999/02/22-rdf-syntax-ns#"
   xmlns:svg="http://www.w3.org/2000/svg"
   xmlns="http://www.w3.org/2000/svg"
   viewBox="0 0 53.333332 53.333332"
   height="53.333332"
   width="53.333332"
   xml:space="preserve"
   version="1.1"
   id="svg2"><metadata
     id="metadata8"><rdf:RDF><cc:Work
         rdf:about=""><dc:format>image/svg+xml</dc:format><dc:type
           rdf:resource="http://purl.org/dc/dcmitype/StillImage" /></cc:Work></rdf:RDF></metadata><defs
     id="defs6" /><g
     transform="matrix(1.3333333,0,0,-1.3333333,0,53.333333)"
     id="g10"><g
       transform="scale(0.1)"
       id="g12"><path
         id="path14"
         style="fill:#ffffff;fill-opacity:1;fill-rule:nonzero;stroke:none"
         d="m 319.941,210.574 c -11.054,0 -20.214,-8.601 -21.285,-20.008 -2.437,-25.695 -14.726,-48.457 -32.968,-64.511 -1.333,-1.172 -2.708,-2.278 -4.094,-3.371 -0.875,-0.692 -1.739,-1.399 -2.637,-2.063 -1.512,-1.105 -3.07,-2.129 -4.633,-3.144 -0.84,-0.543 -1.652,-1.122 -2.508,-1.637 -1.812,-1.102 -3.679,-2.098 -5.554,-3.07 -0.657,-0.344 -1.289,-0.727 -1.957,-1.055 -2.387,-1.168 -4.825,-2.231 -7.297,-3.199 -0.196,-0.078 -0.379,-0.176 -0.578,-0.25 -10.989,-4.231 -22.746,-6.45 -34.739,-6.45 -16.668,0 -33.117,4.325 -47.578,12.496 -16.41,9.286 -29.734,23.047 -38.539,39.801 l -18.4763,-9.879 c 10.6913,-20.328 26.8713,-37.035 46.7893,-48.3043 14.574,-8.2461 30.824,-13.0508 47.484,-14.5274 -0.008,-0.2461 -0.066,-0.4765 -0.066,-0.7265 L 191.805,0 l 20.906,0.125 -0.5,80.6758 -10.453,-0.0625 1.172,0.0547 c 3.324,0.0351 6.632,0.1718 9.918,0.4843 l 0.297,0.0157 c 2.917,0.2812 5.785,0.7343 8.636,1.2304 0.512,0.086 1.035,0.125 1.547,0.2188 7.031,1.3125 13.844,3.2578 20.383,5.7656 1.059,0.4063 2.074,0.9102 3.117,1.3438 2.145,0.8945 4.289,1.7812 6.367,2.7968 1.547,0.7539 3.035,1.625 4.551,2.4493 1.496,0.8125 3.016,1.5937 4.473,2.4726 1.719,1.0352 3.379,2.1797 5.051,3.3047 1.171,0.793 2.367,1.551 3.507,2.387 1.739,1.261 3.411,2.621 5.086,3.98 0.996,0.817 2.008,1.61 2.981,2.453 0.574,0.5 1.187,0.938 1.754,1.446 l -0.09,0.105 c 21.629,19.559 36.265,47.031 39.433,78.25 l 80.059,0.012 0,21.078 -80.059,-0.012" /><path
         id="path16"
         style="fill:#ffffff;fill-opacity:1;fill-rule:nonzero;stroke:none"
         d="m 201.691,173.969 c -14.25,0 -25.839,11.691 -25.839,26.066 0,14.371 11.589,26.059 25.839,26.059 14.25,0 25.848,-11.688 25.848,-26.059 0,-14.375 -11.598,-26.066 -25.848,-26.066 z m 0,73.203 c -25.773,0 -46.746,-21.149 -46.746,-47.137 0,-25.996 20.973,-47.144 46.746,-47.144 25.778,0 46.754,21.148 46.754,47.144 0,25.988 -20.976,47.137 -46.754,47.137" /><path
         id="path18"
         style="fill:#ffffff;fill-opacity:1;fill-rule:nonzero;stroke:none"
         d="m 153.973,285.984 0.129,-0.234 c 28.16,15.922 63.808,16.488 92.421,1.504 l 0.004,0.004 c 16.946,-8.879 30.848,-22.461 40.196,-39.278 l 18.23,10.301 c -11.34,20.418 -28.215,36.907 -48.793,47.68 l -4.816,-9.352 4.816,9.356 c -13.652,7.144 -28.738,11.242 -44.086,12.543 0.008,0.254 0.071,0.496 0.071,0.754 l 0,80.738 -20.907,0 -0.914,-81.215 C 133.383,313.355 86.207,267.242 80.5898,211.531 L 80.1094,210.574 0,210.586 0,189.508 80.1094,189.496 c 10.9844,0 20.1366,8.559 21.2736,19.906 3.289,32.586 23.988,61.121 52.59,76.582" /></g></g></svg>