<?xml version="1.0" encoding="UTF-8" standalone="no"?>
<svg
   xmlns:dc="http://purl.org/dc/elements/1.1/"
   xmlns:cc="http://creativecommons.org/ns#"
   xmlns:rdf="http://www.w3.org/1999/02/22-rdf-syntax-ns#"
   xmlns:svg="http://www.w3.org/2000/svg"
   xmlns="http://www.w3.org/2000/svg"
   viewBox="0 0 53.333332 39.426666"
   height="39.426666"
   width="53.333332"
   xml:space="preserve"
   version="1.1"
   id="svg2"><metadata
     id="metadata8"><rdf:RDF><cc:Work
         rdf:about=""><dc:format>image/svg+xml</dc:format><dc:type
           rdf:resource="http://purl.org/dc/dcmitype/StillImage" /></cc:Work></rdf:RDF></metadata><defs
     id="defs6"><clipPath
       id="clipPath18"
       clipPathUnits="userSpaceOnUse"><path
         id="path20"
         d="M 0,295.668 0,0 l 400,0 0,295.668 -400,0 z" /></clipPath></defs><g
     transform="matrix(1.3333333,0,0,-1.3333333,0,39.426667)"
     id="g10"><g
       transform="scale(0.1)"
       id="g12"><g
         id="g14"><g
           clip-path="url(#clipPath18)"
           id="g16"><path
             id="path22"
             style="fill:#211d1d;fill-opacity:1;fill-rule:nonzero;stroke:none"
             d="m 339.672,257.711 c 0.508,4.398 -0.059,10.934 -1.305,15.203 -0.246,0.848 -2.547,8.477 -6.746,14.445 -5.394,7.696 -15.512,8.254 -16.644,8.293 -6.176,0.282 -12.461,-3.238 -15.649,-8.148 l -4.941,-7.586 c -1.696,-2.598 -5.082,-6.785 -7.266,-8.961 l -85.203,-85.203 9.16,-9.156 85.195,85.199 c 2.832,2.824 6.774,7.68 8.965,11.055 l 4.946,7.589 c 0.703,1.086 3.359,2.348 4.3,2.27 1.551,-0.078 5.188,-0.867 6.539,-2.797 3.024,-4.297 4.903,-10.578 4.915,-10.633 0.757,-2.609 1.175,-7.418 0.871,-10.097 -0.493,-4.207 -2.332,-11.293 -4.903,-13.856 L 92.082,15.5 71.0312,36.5508 196.816,162.336 c 5.047,5.043 5.051,13.262 0.02,18.312 l -89.949,90.29 c -2.184,2.191 -5.575,6.386 -7.262,8.984 l -4.9375,7.574 c -3.1992,4.926 -9.7695,8.363 -15.6484,8.156 -1.1329,-0.039 -11.2539,-0.597 -16.6524,-8.289 -4.1953,-5.972 -6.4961,-13.597 -6.7461,-14.449 -1.2422,-4.262 -1.8086,-10.793 -1.3086,-15.195 0.1719,-1.496 1.8477,-14.789 8.6094,-21.547 1.1953,-1.195 81.3356,-81.676 81.3356,-81.676 l 9.176,9.141 c 0,0 -80.1561,80.496 -81.3514,81.691 -2.5664,2.563 -4.4102,9.649 -4.8985,13.848 -0.3086,2.687 0.1094,7.504 0.8672,10.094 0.0156,0.062 1.8945,6.347 4.9141,10.648 1.3554,1.926 4.9922,2.715 6.4922,2.789 1.082,-0.07 3.6445,-1.184 4.3554,-2.273 l 4.9375,-7.579 c 2.1875,-3.359 6.1133,-8.218 8.9414,-11.054 L 187.66,171.492 61.875,45.707 c -5.0508,-5.0468 -5.0508,-13.2656 0,-18.3125 L 82.9258,6.34375 c 2.5234,-2.52344 5.8398,-3.78906 9.1562,-3.78906 3.3164,0 6.6328,1.26562 9.156,3.78906 L 331.066,236.168 c 6.766,6.762 8.442,20.059 8.606,21.543" /><path
             id="path24"
             style="fill:#211d1d;fill-opacity:1;fill-rule:nonzero;stroke:none"
             d="m 251.57,127.402 -9.156,-9.156 84.258,-84.2577 -21.055,-21.043 -86.418,86.4141 -9.156,-9.1602 86.414,-86.40623 C 298.898,1.34766 302.152,0 305.617,0 c 3.469,0 6.723,1.34766 9.156,3.78906 l 21.059,21.05074 c 5.039,5.0508 5.039,13.2657 -0.004,18.3047 L 251.57,127.402" /><path
             id="path26"
             style="fill:#211d1d;fill-opacity:1;fill-rule:nonzero;stroke:none"
             d="m 14.2852,80.7617 c 2.8945,1.5703 9.164,3.4571 18.0937,4.0586 l 0,-8.1211 c -8.9297,0.6016 -15.1992,2.4883 -18.0937,4.0625 z m 47.6562,0 c -2.7344,-1.4844 -8.4726,-3.25 -16.6133,-3.9492 l 0,7.8984 c 8.1407,-0.7031 13.8789,-2.4687 16.6133,-3.9492 z m 14.2852,0 c 0,10.3789 -14.5782,15.7539 -30.8985,16.9531 l 0,134.8122 -12.9492,0 0,-134.7262 C 15.4727,96.8203 0,91.4531 0,80.7617 0,70.0664 15.4727,64.6992 32.3789,63.7188 l 0,-18.9805 12.9492,0 0,19.0664 c 16.3203,1.2031 30.8985,6.5742 30.8985,16.957" /><path
             id="path28"
             style="fill:#211d1d;fill-opacity:1;fill-rule:nonzero;stroke:none"
             d="m 369.102,76.8125 0,7.8984 c 8.14,-0.7031 13.878,-2.4687 16.613,-3.9492 -2.735,-1.4844 -8.473,-3.25 -16.613,-3.9492 z m -31.043,3.9492 c 2.894,1.5703 9.164,3.4571 18.093,4.0586 l 0,-8.1211 c -8.929,0.6016 -15.199,2.4883 -18.093,4.0625 z m 61.941,0 c 0,10.3789 -14.578,15.7539 -30.898,16.9531 l 0,134.8122 -12.95,0 0,-134.7262 c -16.906,-0.9805 -32.379,-6.3477 -32.379,-17.0391 0,-10.6953 15.473,-16.0625 32.379,-17.0429 l 0,-18.9805 12.95,0 0,19.0664 C 385.422,65.0078 400,70.3789 400,80.7617" /></g></g></g></g></svg>