<?xml version="1.0" encoding="utf-8"?>
<!-- Generator: Adobe Illustrator 21.0.0, SVG Export Plug-In . SVG Version: 6.00 Build 0)  -->
<svg version="1.1" id="success" xmlns="http://www.w3.org/2000/svg" xmlns:xlink="http://www.w3.org/1999/xlink" x="0px" y="0px"
	 viewBox="0 0 40 40" style="enable-background:new 0 0 40 40;" xml:space="preserve">
<style type="text/css">
	.st0{fill:#231F20;}
</style>
<g>
	<path class="st0" d="M38.2,14.3l-1.6,1.9c0.4,1.7,0.5,3.5,0.4,5.2c-0.7,8.1-7.3,14.8-15.5,15.5c-5.4,0.5-10.5-1.5-14.1-5.4
		C3.8,27.7,2.3,22.4,3.2,17c1.2-7,6.9-12.7,13.9-13.9c1-0.2,2-0.2,3-0.2c4,0,7.8,1.4,10.9,3.9c0.8,0.7,1,1.9,0.3,2.7L25,17.2
		l1.6,1.1l6.2-7.6c1.3-1.7,1.1-4.1-0.6-5.5C28.8,2.4,24.4,0.8,20,0.8c-1.1,0-2.1,0.1-3.2,0.3C8.9,2.5,2.5,8.8,1.2,16.7
		c-1,6,0.7,11.9,4.8,16.3c4,4.4,9.8,6.6,15.8,6.1c9.1-0.8,16.5-8.3,17.3-17.4C39.2,19.1,39,16.6,38.2,14.3z"/>
</g>
<g>
	<path class="st0" d="M22.7,10.9c0.6,0.2,1.2,0.5,1.6,0.9l1.6-1.3c-0.6-0.5-1.4-1-2.3-1.3c-0.9-0.3-1.9-0.4-3-0.4
		c-1.1,0-2.1,0.2-3,0.5c-0.9,0.4-1.7,0.9-2.3,1.5c-0.6,0.6-1.1,1.4-1.5,2.3c-0.3,0.9-0.5,1.9-0.4,3h2c0-0.8,0.1-1.5,0.3-2.2
		c0.2-0.7,0.5-1.3,1-1.8c0.4-0.5,1-0.9,1.6-1.2c0.6-0.3,1.4-0.4,2.2-0.4C21.3,10.6,22.1,10.7,22.7,10.9z"/>
	<rect x="19.1" y="30.3" class="st0" width="2.4" height="2.9"/>
	<path class="st0" d="M21.2,21c-0.9,0.9-1.4,1.8-1.6,2.8c-0.2,1-0.3,2.1-0.2,3.3h1.9c0-0.7,0-1.3,0.1-2s0.3-1.3,0.6-1.9
		c0.5-0.7,1.1-1.4,1.7-2s2.4-2.3,3-2.9c0.6-0.6,1.2-2.3,1.2-3.3c0-0.4,0-0.7-0.1-1.1C27.7,13.9,21.6,20.5,21.2,21z"/>
</g>
</svg>
