<?xml version="1.0" encoding="utf-8"?>
<!-- Generator: Adobe Illustrator 18.1.1, SVG Export Plug-In . SVG Version: 6.00 Build 0)  -->
<svg version="1.1" id="Layer_1" xmlns="http://www.w3.org/2000/svg" xmlns:xlink="http://www.w3.org/1999/xlink" x="0px" y="0px"
	 viewBox="0 0 40 40" enable-background="new 0 0 40 40" xml:space="preserve">
<g>
	<path fill="#FFFFFF" d="M39.7,10.6V7.5c0-3.9-3.2-7.2-7.2-7.2H7.9c-3.9,0-7.2,3.2-7.2,7.2h2c0-2.8,2.3-5.2,5.2-5.2h24.6
		c2.8,0,5.2,2.3,5.2,5.2v3.1c0,0.3-0.2,0.5-0.5,0.5H3.3c-1.4,0-2.5,1.1-2.5,2.5v18.5c0,3.9,3.2,7.2,7.2,7.2h24.6
		c3.9,0,7.2-3.2,7.2-7.2V16.7h-2v15.4c0,2.8-2.3,5.2-5.2,5.2H7.9c-2.8,0-5.2-2.3-5.2-5.2V13.6c0-0.3,0.2-0.5,0.5-0.5h33.9
		C38.5,13.1,39.7,12,39.7,10.6z"/>
</g>
</svg>
