<?xml version="1.0" encoding="utf-8"?>
<!-- Generator: Adobe Illustrator 18.0.0, SVG Export Plug-In . SVG Version: 6.00 Build 0)  -->
<!DOCTYPE svg PUBLIC "-//W3C//DTD SVG 1.1//EN" "http://www.w3.org/Graphics/SVG/1.1/DTD/svg11.dtd">
<svg version="1.1" id="Layer_1" xmlns="http://www.w3.org/2000/svg" xmlns:xlink="http://www.w3.org/1999/xlink" x="0px" y="0px"
	 viewBox="0 0 256 64" enable-background="new 0 0 256 64" xml:space="preserve">
<polygon points="125,-4 260,-4 260,68 125,68" style="fill:#f3f3f3;stroke:#c3c3c3;stroke-width:1" />
<polygon points="-4,-4 -4,68 125,68 125,42 135,32 125,22 125,-4" style="fill:#ffffff;stroke:#c3c3c3;stroke-width:1" />
</svg>