<?xml version="1.0" encoding="UTF-8" standalone="no"?>
<svg
   xmlns:dc="http://purl.org/dc/elements/1.1/"
   xmlns:cc="http://creativecommons.org/ns#"
   xmlns:rdf="http://www.w3.org/1999/02/22-rdf-syntax-ns#"
   xmlns:svg="http://www.w3.org/2000/svg"
   xmlns="http://www.w3.org/2000/svg"
   viewBox="0 0 670.89331 764.91998"
   height="764.91998"
   width="670.89331"
   xml:space="preserve"
   version="1.1"
   id="svg2"><metadata
     id="metadata8"><rdf:RDF><cc:Work
         rdf:about=""><dc:format>image/svg+xml</dc:format><dc:type
           rdf:resource="http://purl.org/dc/dcmitype/StillImage" /></cc:Work></rdf:RDF></metadata><defs
     id="defs6"><clipPath
       id="clipPath18"
       clipPathUnits="userSpaceOnUse"><path
         id="path20"
         d="M 0,5736.92 0,0 l 5031.65,0 0,5736.92 -5031.65,0 z" /></clipPath></defs><g
     transform="matrix(1.3333333,0,0,-1.3333333,0,764.92)"
     id="g10"><g
       transform="scale(0.1)"
       id="g12"><g
         id="g14"><g
           clip-path="url(#clipPath18)"
           id="g16"><path
             id="path22"
             style="fill:#2c9b57;fill-opacity:1;fill-rule:nonzero;stroke:none"
             d="m 2090.79,3620.71 -350,0 0,-350.88 128,0 49,-49.12 49,49.12 124,0 0,350.88" /><path
             id="path24"
             style="fill:#ffffff;fill-opacity:1;fill-rule:nonzero;stroke:none"
             d="m 1951.98,3465.02 c -7.22,16.52 -15.35,15.61 -28.09,12.06 -9.92,-2.76 -15.69,-5.65 -19.5,-7.55 -2.19,-1.09 -3.77,-1.88 -4.6,-1.88 -2.33,0 -13.61,2.5 -20.35,3.99 -7.89,1.75 -12.85,2.83 -15.39,3.11 -5.29,0.6 -40.61,-5.47 -69.22,-10.63 l -5.57,-1.08 0.08,-18.25 c 0,-2.24 0.93,-4.42 2.54,-5.98 1.62,-1.55 3.86,-2.45 6.08,-2.3 1.18,0.05 2.26,0.08 3.24,0.1 -1.06,-2.65 -1.82,-5.21 -2.25,-7.65 -1,-5.71 -2.86,-16.32 4.14,-18.53 4.74,-1.69 16.42,-4.88 22.53,2.4 7.75,9.25 19,12.32 28.67,7.79 6.61,-3.09 11.48,-8.78 13.35,-15.62 1.82,-6.64 0.62,-13.54 -3.4,-19.42 -6.45,-9.47 -19.51,-13.12 -29.72,-8.31 -6.5,3.05 -13.56,10.78 -13.92,23.31 l -12.72,-0.36 c 0.44,-15.31 8.57,-28.52 21.21,-34.48 4.85,-2.27 10.03,-3.36 15.18,-3.36 11.84,0 23.49,5.75 30.49,16.02 6.16,9.02 7.99,19.67 5.16,29.97 -2.86,10.44 -10.24,19.12 -20.24,23.79 -14.82,6.92 -32.43,2.44 -43.59,-10.95 -0.62,-0.33 -2.61,-0.35 -5.3,0.24 0.08,1.19 0.28,2.91 0.7,5.31 0.59,3.36 2.21,7.26 4.82,11.59 l 1.98,3.65 -1.95,3.27 c -1.9,3.19 -5.09,4.21 -14.29,4.1 l -0.02,3.11 c 28.02,5 56.52,9.57 60.61,9.62 1.99,-0.22 8.4,-1.64 14.05,-2.89 12.08,-2.67 19.66,-4.29 23.1,-4.29 3.84,0 6.83,1.49 10.29,3.22 3.58,1.79 8.49,4.24 17.46,6.74 9.48,2.63 9.46,2.61 12.77,-4.95 2.66,-6.11 3.34,-8.63 3.49,-9.65 -3.24,-5.01 -19.95,-27.35 -25.4,-34.21 l -30.15,0.11 -0.05,-12.73 32.06,-0.12 c 3.93,-1.08 4.86,0.14 20.25,20.72 14.26,19.1 14.98,20.87 15.33,21.74 1.83,4.59 0.14,10.08 -3.86,19.23" /><path
             id="path26"
             style="fill:#ffffff;fill-opacity:1;fill-rule:nonzero;stroke:none"
             d="m 1993.21,3468.11 -9.55,23.08 -11.76,-4.87 9.55,-23.08 11.76,4.87" /><path
             id="path28"
             style="fill:#ffffff;fill-opacity:1;fill-rule:nonzero;stroke:none"
             d="m 1988.23,3437.58 c -0.01,0 -0.01,0 -0.02,0 -0.04,0.01 -4.07,0.34 -7.78,8.83 -5.79,13.23 -34.19,81.28 -34.48,81.97 l -2.4,5.75 -37.73,-14.82 4.65,-11.85 26.13,10.26 c 7.06,-16.88 27.27,-65.22 32.16,-76.41 7.5,-17.15 19.01,-16.56 19.66,-16.45 13.72,0 24.87,-11.15 24.87,-24.87 0,-13.71 -11.15,-24.86 -24.87,-24.86 -13.71,0 -24.87,11.15 -24.87,24.86 l -12.73,0 c 0,-20.73 16.87,-37.6 37.6,-37.6 20.73,0 37.6,16.87 37.6,37.6 0,20.73 -16.85,37.59 -37.79,37.59" /></g></g></g></g></svg>