<?xml version="1.0" encoding="utf-8"?>
<!-- Generator: Adobe Illustrator 18.0.0, SVG Export Plug-In . SVG Version: 6.00 Build 0)  -->
<!DOCTYPE svg PUBLIC "-//W3C//DTD SVG 1.1//EN" "http://www.w3.org/Graphics/SVG/1.1/DTD/svg11.dtd">
<svg version="1.1" id="shadow" xmlns="http://www.w3.org/2000/svg" xmlns:xlink="http://www.w3.org/1999/xlink" x="0px" y="0px"
	 width="66px" height="36px" viewBox="0 0 66 36" enable-background="new 0 0 66 36" xml:space="preserve">
<polygon opacity="0.25" points="3.9,31.4 2.2,33.4 9.2,33.4 7.2,31.4 "/>
<polyline opacity="0.25" points="11.5,35.7 16.5,33.4 16.5,33.4 55.4,33.4 65.4,21.3 53.8,21.3 53.8,31.4 22.7,31.4 22.7,31.4
	15.9,31.4 "/>
<g id="g10_5_" transform="matrix(1.3333333,0,0,-1.3333333,0,53.333333)">
	<path id="path12_6_" fill="#01975A" d="M17,16.5h23.3v23.3H17V16.5z"/>
	<g id="g14_6_" transform="translate(0.0999,33.3)">
		<path id="path16_6_" fill="#00824D" d="M0.3,6.5v-23.3h5L8.5-20l3.3,3.2h5.1V6.5H0.3z"/>
	</g>
	<g id="g18_6_">
		<g>
			<g id="g20_6_">
				<g id="g26_6_" transform="translate(32.5,16.9)">
					<path id="path28_6_" fill="#FFFFFF" d="M0.3,6.5c0.8,0,1.5,0.7,1.5,1.5v6.1c0,2.1-1.7,3.8-3.8,3.8h-3.9c-2.1,0-3.8-1.7-3.8-3.8
						v-6h0.8v6c0,1.6,1.3,2.9,2.9,2.9h3.9c1.6,0,2.9-1.3,2.9-2.9V8c0-0.4-0.3-0.7-0.7-0.7h-7.4C-8,7.3-8.7,7-9.1,6.4l-2.5-3.5h1.1
						l2.1,3c0.3,0.3,0.7,0.6,1.1,0.6H0.3z"/>
				</g>
				<g id="g30_4_" transform="translate(33.9,16)">
					<path id="path32_4_" fill="#FFFFFF" d="M0.3,6.5l-0.9-0.2l1.8-2.5h1.1L0.3,6.5z"/>
				</g>
				<g id="g34_2_" transform="translate(27.6,29.1)">
					<path id="path36_2_" fill="#FFFFFF" d="M0.3,6.5h1.5c0.2,0,0.4,0.2,0.4,0.4c0,0.2-0.3,0.5-0.4,0.5H0.3C0.1,7.4-0.1,7.2-0.1,7
						C-0.1,6.7,0.1,6.5,0.3,6.5"/>
				</g>
				<g id="g38_1_" transform="translate(25.5,19)">
					<path id="path40_1_" fill="#FFFFFF" d="M0.3,6.5c0.4,0,0.8,0.3,0.8,0.8c0,0.4-0.3,0.8-0.8,0.8c-0.4,0-0.8-0.3-0.8-0.8
						C-0.5,6.9-0.1,6.5,0.3,6.5"/>
				</g>
				<g id="g42_1_" transform="translate(31.2,19)">
					<path id="path44_1_" fill="#FFFFFF" d="M0.3,6.5c0.4,0,0.8,0.3,0.8,0.8c0,0.4-0.3,0.8-0.8,0.8s-0.8-0.3-0.8-0.8
						C-0.4,6.9-0.1,6.5,0.3,6.5"/>
				</g>
				<g id="g46" transform="translate(25.6,24)">
					<path id="path48" fill="#FFFFFF" d="M0.3,6.5v0.3h-0.8V6.5c0-0.7,0.6-1.3,1.3-1.3h4.6c0.7,0,1.3,0.6,1.3,1.3v0.3H5.9V6.5
						C5.9,6.2,5.7,6,5.4,6H0.8C0.5,6,0.3,6.2,0.3,6.5"/>
				</g>
				<g id="g50" transform="translate(25.1,15.5)">
					<path id="path52" fill="#FFFFFF" d="M0.3,6.5l-0.6-0.8h7.7L6.8,6.5H0.3z"/>
				</g>
			</g>
		</g>
	</g>
</g>
</svg>
