<?xml version="1.0" encoding="utf-8"?>
<!-- Generator: Adobe Illustrator 18.1.1, SVG Export Plug-In . SVG Version: 6.00 Build 0)  -->
<svg version="1.1" id="Layer_1" xmlns="http://www.w3.org/2000/svg" xmlns:xlink="http://www.w3.org/1999/xlink" x="0px" y="0px"
	 viewBox="0 0 130.8 130.9" enable-background="new 0 0 130.8 130.9" xml:space="preserve">
<g>
	<circle opacity="0.9" fill="#149A5A" cx="65.4" cy="65.4" r="57.6"/>
	<circle fill="none" stroke="#149A5A" stroke-width="4" stroke-miterlimit="10" cx="65.4" cy="65.4" r="63.4"/>
</g>
</svg>
