<?xml version="1.0" encoding="UTF-8" standalone="no"?>
<svg
   xmlns:dc="http://purl.org/dc/elements/1.1/"
   xmlns:cc="http://creativecommons.org/ns#"
   xmlns:rdf="http://www.w3.org/1999/02/22-rdf-syntax-ns#"
   xmlns:svg="http://www.w3.org/2000/svg"
   xmlns="http://www.w3.org/2000/svg"
   viewBox="0 0 46.666668 53.333332"
   height="53.333332"
   width="46.666668"
   xml:space="preserve"
   version="1.1"
   id="svg2"><metadata
     id="metadata8"><rdf:RDF><cc:Work
         rdf:about=""><dc:format>image/svg+xml</dc:format><dc:type
           rdf:resource="http://purl.org/dc/dcmitype/StillImage" /></cc:Work></rdf:RDF></metadata><defs
     id="defs6" /><g
     transform="matrix(1.3333333,0,0,-1.3333333,0,53.333333)"
     id="g10"><g
       transform="scale(0.1)"
       id="g12"><path
         id="path14"
         style="fill:#5d5e60;fill-opacity:1;fill-rule:nonzero;stroke:none"
         d="M 350,400 0,400 0,49.1211 l 128,0 L 177,0 l 49,49.1211 124,0 L 350,400" /><path
         id="path16"
         style="fill:#ffffff;fill-opacity:1;fill-rule:nonzero;stroke:none"
         d="m 71.9727,284.211 c -19.1211,0 -34.6719,-15.551 -34.6719,-34.672 l 0,-46.66 c 0,-19.113 15.5508,-34.672 34.6719,-34.672 l 223.5863,0 0,21.34 -223.5863,0 c -7.3516,0 -13.3399,5.984 -13.3399,13.332 l 0,14.422 230.1442,0 0,21.332 -230.1442,0 0,10.906 c 0,7.348 5.9883,13.34 13.3399,13.34 l 223.5863,0 0,21.332 -223.5863,0" /></g></g></svg>