<?xml version="1.0" encoding="utf-8"?>
<!-- Generator: Adobe Illustrator 18.0.0, SVG Export Plug-In . SVG Version: 6.00 Build 0)  -->
<!DOCTYPE svg PUBLIC "-//W3C//DTD SVG 1.1//EN" "http://www.w3.org/Graphics/SVG/1.1/DTD/svg11.dtd">
<svg version="1.1" id="shadow" xmlns="http://www.w3.org/2000/svg" xmlns:xlink="http://www.w3.org/1999/xlink" x="0px" y="0px"
	 width="66px" height="36px" viewBox="0 0 66 36" enable-background="new 0 0 66 36" xml:space="preserve">
<polygon opacity="0.25" points="3.9,31.4 2.2,33.4 9.2,33.4 7.2,31.4 "/>
<polyline opacity="0.25" points="11.5,35.7 16.5,33.4 16.5,33.4 55.4,33.4 65.4,21.3 53.8,21.3 53.8,31.4 22.7,31.4 22.7,31.4
	15.9,31.4 "/>
<g id="g10_2_" transform="matrix(1.3333333,0,0,-1.3333333,0,53.333333)">
	<path id="path12_3_" fill="#1060AC" d="M17,16.5h23.3v23.3H17V16.5z"/>
	<g id="g14_3_" transform="translate(0.0999,33.3)">
		<path id="path16_3_" fill="#065293" d="M0.3,6.5v-23.3h5L8.5-20l3.3,3.2h5.1V6.5H0.3z"/>
	</g>
	<g id="g18_3_" transform="translate(26.4,20.6)">
		<path id="path20" fill="#FCEE21" d="M0.3,6.5L2,10.4l1.9-3.9H0.3z M3.9,12.5H0.4l-4.9-9.9h2.8l0.9,2h5.5l1-2h3.2L3.9,12.5z"/>
	</g>
</g>
</svg>
