<?xml version="1.0" encoding="UTF-8" standalone="no"?>
<svg
   xmlns:dc="http://purl.org/dc/elements/1.1/"
   xmlns:cc="http://creativecommons.org/ns#"
   xmlns:rdf="http://www.w3.org/1999/02/22-rdf-syntax-ns#"
   xmlns:svg="http://www.w3.org/2000/svg"
   xmlns="http://www.w3.org/2000/svg"
   viewBox="0 0 46.666668 53.333332"
   height="53.333332"
   width="46.666668"
   xml:space="preserve"
   version="1.1"
   id="svg2"><metadata
     id="metadata8"><rdf:RDF><cc:Work
         rdf:about=""><dc:format>image/svg+xml</dc:format><dc:type
           rdf:resource="http://purl.org/dc/dcmitype/StillImage" /></cc:Work></rdf:RDF></metadata><defs
     id="defs6" /><g
     transform="matrix(1.3333333,0,0,-1.3333333,0,53.333333)"
     id="g10"><g
       transform="scale(0.1)"
       id="g12"><path
         id="path14"
         style="fill:#5d5e60;fill-opacity:1;fill-rule:nonzero;stroke:none"
         d="m 350.031,399.938 -349.99975,0 0,-350.8794 127.99975,0 49,-49.1211 49,49.1211 124,0 0,350.8794" /><path
         id="path16"
         style="fill:#ffffff;fill-opacity:1;fill-rule:nonzero;stroke:none"
         d="m 226.414,251.199 c -4.703,-4.703 -12.363,-4.691 -17.082,0.028 -4.715,4.714 -4.727,12.375 -0.023,17.078 4.703,4.703 12.363,4.691 17.078,-0.028 4.718,-4.715 4.73,-12.379 0.027,-17.078 z m 38.637,-37.437 9.945,58.367 -9.777,1.691 -9.684,-56.812 -87.461,-87.461 c -1.871,-1.871 -4.922,-1.867 -6.797,0.008 l -73.9723,73.972 c -1.875,1.875 -1.8789,4.922 -0.0078,6.793 l 87.5551,87.559 58.668,12.379 13.55,-13.551 c 0.2,-0.195 0.2,-0.523 -0.004,-0.723 l -17.621,-17.621 c -8.492,5.297 -19.804,4.321 -27.16,-3.035 -8.562,-8.562 -8.547,-22.519 0.043,-31.109 8.59,-8.586 22.547,-8.61 31.11,-0.043 7.359,7.355 8.332,18.672 3.035,27.164 l 17.621,17.621 c 4.058,4.059 4.051,10.68 -0.02,14.754 l -15.457,15.453 c -1.187,1.187 -2.898,1.699 -4.539,1.352 l -62.734,-13.239 c -0.942,-0.199 -1.801,-0.664 -2.477,-1.34 L 80.2734,217.348 c -5.7343,-5.735 -5.7226,-15.075 0.0274,-20.825 l 73.9722,-73.972 c 5.75,-5.75 15.09,-5.762 20.825,-0.031 l 88.574,88.578 c 0.723,0.722 1.203,1.656 1.379,2.664" /></g></g></svg>