<?xml version="1.0" encoding="UTF-8" standalone="no"?>
<svg
   xmlns:dc="http://purl.org/dc/elements/1.1/"
   xmlns:cc="http://creativecommons.org/ns#"
   xmlns:rdf="http://www.w3.org/1999/02/22-rdf-syntax-ns#"
   xmlns:svg="http://www.w3.org/2000/svg"
   xmlns="http://www.w3.org/2000/svg"
   viewBox="0 0 69.333336 96"
   height="96"
   width="69.333336"
   xml:space="preserve"
   id="svg2"
   version="1.1"><metadata
     id="metadata8"><rdf:RDF><cc:Work
         rdf:about=""><dc:format>image/svg+xml</dc:format><dc:type
           rdf:resource="http://purl.org/dc/dcmitype/StillImage" /></cc:Work></rdf:RDF></metadata><defs
     id="defs6"><clipPath
       id="clipPath20"
       clipPathUnits="userSpaceOnUse"><path
         id="path18"
         d="M 0,72 H 52 V 0 H 0 Z" /></clipPath></defs><g
     transform="matrix(1.3333333,0,0,-1.3333333,0,96)"
     id="g10"><path
       id="path12"
       style="fill:#181918;fill-opacity:1;fill-rule:nonzero;stroke:none"
       d="m 17.249,1.229 h 3.725 v 15.277 h -3.725 z" /><g
       id="g14"><g
         clip-path="url(#clipPath20)"
         id="g16"><g
           transform="translate(44.1059,0.8731)"
           id="g22"><path
             id="path24"
             style="fill:#181918;fill-opacity:1;fill-rule:nonzero;stroke:none"
             d="m 0,0 c -2.935,0 -4.616,0.56 -6.133,1.9 l -0.2,0.19 0.257,0.147 2.298,1.221 0.139,0.091 0.15,-0.117 C -2.53,2.824 -1.657,2.254 0,2.254 c 1.19,0 2.043,0.262 2.511,0.639 0.181,0.138 0.266,0.283 0.266,0.47 0,0.866 -1.727,1.132 -2.986,1.32 L -0.64,4.73 c -2.587,0.374 -5.269,1.006 -5.269,3.182 0,0.751 0.35,1.41 1.009,1.973 1.104,0.875 3.271,1.417 5.479,1.417 2.526,-0.004 4.39,-0.659 5.436,-1.788 L 6.19,9.322 3.603,8.052 3.434,7.957 3.281,8.072 C 2.469,8.71 1.653,9.038 0.403,9.038 -0.793,9.038 -1.786,8.71 -1.786,8.096 -1.786,7.176 0,6.944 1.303,6.774 1.507,6.731 1.715,6.731 1.857,6.684 4.387,6.314 6.894,5.623 6.894,3.458 6.894,0.912 3.105,0 0,0" /></g><g
           transform="translate(26.5524,11.7223)"
           id="g26"><path
             id="path28"
             style="fill:#181918;fill-opacity:1;fill-rule:nonzero;stroke:none"
             d="m 0,0 v -6.161 c 0,-0.742 0.253,-1.297 0.744,-1.715 0.685,-0.57 1.699,-0.688 2.441,-0.688 2.458,0 3.173,1.152 3.169,3.163 v 5.405 h 3.711 v -10.53 H 6.354 v 1.197 C 5.378,-10.23 4,-10.805 2.001,-10.805 c -1.857,0 -3.451,0.486 -4.438,1.313 -0.853,0.718 -1.257,1.64 -1.257,2.769 V 0 H 0" /></g><g
           transform="translate(11.8955,13.6926)"
           id="g30"><path
             id="path32"
             style="fill:#181918;fill-opacity:1;fill-rule:nonzero;stroke:none"
             d="m 0,0 c -0.648,0.573 -1.895,0.861 -3.797,0.861 h -3.619 v -4.453 h 3.619 c 1.902,0 3.149,0.258 3.797,0.862 0.389,0.334 0.598,0.776 0.598,1.351 C 0.598,-0.78 0.389,-0.342 0,0 m -2.992,-5.832 h -4.424 v -6.477 -0.209 h -0.235 -2.937 -0.235 v 0.209 15.2 0.204 h 0.235 7.596 c 2.682,0 4.657,-0.544 5.879,-1.611 1.07,-0.935 1.301,-2.082 1.301,-2.863 0,-1.325 -0.697,-4.453 -7.18,-4.453" /></g><g
           transform="translate(5.3002,23.8206)"
           id="g34"><path
             id="path36"
             style="fill:#169a5a;fill-opacity:1;fill-rule:nonzero;stroke:none"
             d="M 0,0 C -0.002,0.002 -0.008,0.009 -0.008,0.022 -0.012,0.03 -0.012,0.04 -0.014,0.047 l -0.01,0.079 v 0.192 c 0,0.278 -0.073,0.462 -0.223,0.551 C -0.34,0.922 -0.5,0.946 -0.723,0.946 H -1.055 V 0 h -0.423 v 2.406 h 0.84 c 0.298,0 0.519,-0.028 0.66,-0.087 C 0.268,2.218 0.393,2.013 0.393,1.711 0.393,1.495 0.312,1.335 0.156,1.237 0.075,1.18 -0.044,1.144 -0.194,1.12 -0.002,1.086 0.136,1.014 0.221,0.881 0.31,0.756 0.353,0.63 0.353,0.511 V 0.335 c 0,-0.058 0,-0.119 0.008,-0.181 C 0.365,0.085 0.369,0.044 0.379,0.026 L 0.399,0 Z m -0.595,3.085 c -0.523,0 -0.966,-0.184 -1.333,-0.551 -0.369,-0.373 -0.551,-0.818 -0.551,-1.337 0,-0.526 0.182,-0.972 0.547,-1.345 0.367,-0.373 0.81,-0.557 1.337,-0.557 0.52,0 0.968,0.184 1.337,0.557 0.362,0.373 0.544,0.819 0.544,1.345 0,0.519 -0.182,0.964 -0.544,1.337 -0.373,0.367 -0.817,0.551 -1.337,0.551" /></g><g
           transform="translate(40.8021,48.858)"
           id="g38"><path
             id="path40"
             style="fill:#169a5a;fill-opacity:1;fill-rule:nonzero;stroke:none"
             d="m 0,0 c 0.089,0.174 0.041,0.41 -0.162,0.77 -1.62,2.316 -4.795,3.635 -8.71,3.618 -3.745,-0.004 -7.525,-1.698 -9.154,-4.092 0,0 -0.23,-0.312 -0.361,-0.628 H -1.088 C -0.626,-0.326 -0.142,-0.271 0,0" /></g><g
           transform="translate(5.2762,25.4959)"
           id="g42"><path
             id="path44"
             style="fill:#169a5a;fill-opacity:1;fill-rule:nonzero;stroke:none"
             d="m 0,0 c 0,0.174 -0.051,0.292 -0.16,0.35 -0.107,0.064 -0.276,0.091 -0.511,0.091 h -0.36 v -0.875 h 0.382 c 0.181,0 0.317,0.02 0.406,0.053 C -0.083,-0.313 0,-0.183 0,0" /></g><g
           transform="translate(47.2244,44.9486)"
           id="g46"><path
             id="path48"
             style="fill:#169a5a;fill-opacity:1;fill-rule:nonzero;stroke:none"
             d="m 0,0 c -0.161,-0.196 -0.374,-0.346 -0.636,-0.461 -0.787,-0.345 -2.011,-0.373 -3.573,-0.383 h -42.015 v 1.8 h 40.055 c 2.939,0 3.276,0.194 3.562,0.401 0.316,0.233 0.427,0.544 0.407,1.091 -0.079,2.317 -4.109,8.531 -13.242,8.531 -8.789,0 -12.001,-5.107 -12.782,-6.673 0,0 -0.186,-0.348 -0.338,-0.729 h 1.017 c 0.096,0.223 0.179,0.393 0.308,0.628 0.715,1.324 4.007,5.873 11.795,5.873 9.078,0 12.275,-6.16 12.275,-7.489 0,-0.213 -0.057,-0.31 -0.13,-0.377 C -3.55,1.973 -3.892,1.856 -6.169,1.856 h -40.055 v 1.722 h 15.005 0.004 c 0.02,0.068 0.06,0.175 0.101,0.282 0.055,0.147 0.115,0.294 0.139,0.345 1.861,4.311 7.617,8.515 15.541,8.515 h 0.01 c 8.979,0 14.675,-4.925 15.65,-9.781 C 0.332,2.383 0.372,1.932 0.38,1.527 0.392,0.846 0.278,0.339 0,0 m -27.003,-1.843 h 2.83 c 0.2,-0.241 0.427,-0.47 0.666,-0.692 1.153,-1.07 2.739,-1.903 4.515,-2.392 1.107,-0.304 2.282,-0.483 3.477,-0.483 2.202,0 5.161,0.304 6.708,1.561 h 3.557 c -3.646,-3.766 -10.296,-3.504 -10.581,-3.491 -6.041,0.158 -9.708,2.959 -11.172,5.497 m 26.02,-2.054 c -0.063,-0.113 -0.125,-0.207 -0.211,-0.328 -0.007,-0.009 -0.01,-0.015 -0.017,-0.024 -0.14,-0.183 -0.284,-0.366 -0.435,-0.548 -0.266,-0.323 -0.553,-0.643 -0.86,-0.959 -0.04,-0.041 -0.076,-0.083 -0.117,-0.123 -0.426,-0.429 -0.904,-0.843 -1.433,-1.238 -2.315,-1.731 -5.729,-3.044 -11.386,-3.053 -8.336,-0.008 -13.66,4.096 -15.42,8.327 h 2.827 c 1.53,-3.07 5.869,-6.296 12.178,-6.396 0.828,-0.028 8.219,-0.118 11.752,4.29 l 0.076,0.1 h 3.074 c -0.01,-0.018 -0.019,-0.031 -0.028,-0.048 m -39.983,-17.592 c -0.429,-0.429 -0.948,-0.646 -1.553,-0.646 -0.608,0 -1.124,0.217 -1.55,0.646 -0.427,0.43 -0.64,0.949 -0.64,1.558 0,0.599 0.213,1.114 0.645,1.548 0.425,0.425 0.94,0.638 1.545,0.638 0.605,0 1.124,-0.213 1.553,-0.638 0.427,-0.43 0.642,-0.942 0.642,-1.548 0,-0.609 -0.215,-1.128 -0.642,-1.558 m -5.259,-2.096 H 3.539 v 49.763 h -49.764 z" /></g></g></g></g></svg>