<?xml version="1.0" encoding="utf-8"?>
<!-- Generator: Adobe Illustrator 18.0.0, SVG Export Plug-In . SVG Version: 6.00 Build 0)  -->
<!DOCTYPE svg PUBLIC "-//W3C//DTD SVG 1.1//EN" "http://www.w3.org/Graphics/SVG/1.1/DTD/svg11.dtd">
<svg version="1.1" id="Layer_2" xmlns="http://www.w3.org/2000/svg" xmlns:xlink="http://www.w3.org/1999/xlink" x="0px" y="0px"
	 viewBox="0 0 40 40" enable-background="new 0 0 40 40" xml:space="preserve">
<path fill="#ffffff" d="M29.4,25.9c4.5-2.4,7.9-4.3,8.2-4.5c0.9-0.5,1.9-1.8,0-2.8c-0.6-0.3-3.9-2.1-8.2-4.5L23.5,20L29.4,25.9z"/>
<path fill="#ffffff" d="M22.5,21.1L3.7,40c0.4,0.1,0.9-0.1,1.5-0.4c1.2-0.7,14.3-7.8,23.1-12.7L22.5,21.1z"/>
<path fill="#ffffff" d="M22.5,19l5.9-5.9c0,0-21.8-11.9-23.1-12.6c-0.5-0.3-1-0.4-1.5-0.3L22.5,19z"/>
<path fill="#ffffff" d="M21.6,20.1L2.8,1.3C2,1.4,1.4,2.1,1.4,3.5c0,2.2,0,31.4,0,33.3c0,1.3,0.5,2.2,1.4,2.3L21.6,20.1z"/>
</svg>
