<?xml version="1.0" encoding="utf-8"?>
<!-- Generator: Adobe Illustrator 18.0.0, SVG Export Plug-In . SVG Version: 6.00 Build 0)  -->
<!DOCTYPE svg PUBLIC "-//W3C//DTD SVG 1.1//EN" "http://www.w3.org/Graphics/SVG/1.1/DTD/svg11.dtd">
<svg version="1.1" id="Layer_1" xmlns="http://www.w3.org/2000/svg" xmlns:xlink="http://www.w3.org/1999/xlink" x="0px" y="0px"
	 viewBox="0 0 40 40" enable-background="new 0 0 40 40" xml:space="preserve">
<g>
	<path fill-rule="evenodd" clip-rule="evenodd" d="M36.9,29.3c-0.9,2.1-1.4,3-2.6,4.8c-1.7,2.6-4.1,5.8-7,5.8
		c-2.6,0-3.3-1.7-6.8-1.7c-3.5,0-4.3,1.7-6.9,1.7c-2.9,0-5.2-2.9-6.9-5.5c-4.7-7.2-5.2-15.6-2.3-20c2.1-3.2,5.3-5,8.4-5
		c3.1,0,5.1,1.7,7.6,1.7c2.5,0,4-1.7,7.6-1.7c2.7,0,5.6,1.5,7.7,4C29,17.1,30.1,26.7,36.9,29.3L36.9,29.3z"/>
	<path fill-rule="evenodd" clip-rule="evenodd" d="M25.3,6.5c1.3-1.7,2.3-4.1,1.9-6.5c-2.1,0.1-4.6,1.5-6.1,3.3
		c-1.3,1.6-2.4,4-2,6.3C21.5,9.7,23.9,8.3,25.3,6.5L25.3,6.5z"/>
</g>
</svg>
