<?xml version="1.0" encoding="utf-8"?>
<!-- Generator: Adobe Illustrator 18.0.0, SVG Export Plug-In . SVG Version: 6.00 Build 0)  -->
<!DOCTYPE svg PUBLIC "-//W3C//DTD SVG 1.1//EN" "http://www.w3.org/Graphics/SVG/1.1/DTD/svg11.dtd">
<svg version="1.1" id="Layer_1" xmlns="http://www.w3.org/2000/svg" xmlns:xlink="http://www.w3.org/1999/xlink" x="0px" y="0px"
	 viewBox="0 0 40 40" enable-background="new 0 0 40 40" xml:space="preserve">
<g>
	<path fill="none" stroke="#ffffff" stroke-width="2" stroke-miterlimit="10" d="M28.4,39H11c-2.1,0-3.8-1.8-3.8-3.9V4.9
		C7.2,2.8,8.9,1,11,1h17.4c2.1,0,3.8,1.8,3.8,3.9v30.2C32.2,37.2,30.5,39,28.4,39z"/>
	<ellipse fill="#ffffff" cx="19.6" cy="35.6" rx="1.5" ry="1.5"/>
	<line fill="none" stroke="#ffffff" stroke-width="2" stroke-miterlimit="10" x1="31.6" y1="31.7" x2="7.9" y2="31.7"/>
</g>
</svg>
