<?xml version="1.0" encoding="utf-8"?>
<!-- Generator: Adobe Illustrator 18.1.1, SVG Export Plug-In . SVG Version: 6.00 Build 0)  -->
<svg version="1.1" id="Layer_1" xmlns="http://www.w3.org/2000/svg" xmlns:xlink="http://www.w3.org/1999/xlink" x="0px" y="0px"
	 viewBox="0 0 40 40" enable-background="new 0 0 40 40" xml:space="preserve">
<g id="Page-1">
	<g id="Core" transform="translate(-87.000000, -342.000000)">
		<g id="menu" transform="translate(87.000000, 342.000000)">
			<path id="Shape" fill="#169A5A" d="M0,27.3h40v-4.5H0V27.3L0,27.3z M0,16h40v-4.5H0V16L0,16z"/>
		</g>
	</g>
</g>
</svg>
