<?xml version="1.0" encoding="utf-8"?>
<!-- Generator: Adobe Illustrator 18.1.1, SVG Export Plug-In . SVG Version: 6.00 Build 0)  -->
<svg version="1.1" id="Layer_1" xmlns="http://www.w3.org/2000/svg" xmlns:xlink="http://www.w3.org/1999/xlink" x="0px" y="0px"
	 viewBox="0 0 40 40" enable-background="new 0 0 40 40" xml:space="preserve">
<polygon fill="#FFFFFF" points="39.7,30.3 33.6,30.3 33.6,10.5 39.7,10.5 39.7,12 35.2,12 35.2,28.7 39.7,28.7 "/>
<circle fill="#FFFFFF" cx="38.6" cy="24.5" r="1.2"/>
<polygon fill="#FFFFFF" points="6.7,28.4 0.6,28.4 0.6,26.8 5.1,26.8 5.1,10.2 0.6,10.2 0.6,8.6 6.7,8.6 "/>
<circle fill="#FFFFFF" cx="1.7" cy="22.6" r="1.2"/>
<path fill="#FFFFFF" d="M27.4,31.1c-0.3,0-0.6,0-0.8-0.1l-0.1,0c-0.4-0.1-1.1-0.3-4.8-6.8l1.4-0.8c2.8,4.8,3.7,5.9,3.9,6.1c1.5,0.2,2-0.7,2.2-1.8
	c-0.2-0.5-1.3-2.5-6-10.8l-0.1-0.1c-0.3-0.1-0.9-0.1-2.1-0.1c0,0-0.1,0-0.1,0c-0.4,0.3-1.3,1.2-2,2c-0.8,0.8-1.6,1.7-2.3,2.3
	L16.5,21c-1,0.6-2,0.7-3,0.2c-1.4-0.6-2.3-2-2.4-2.7c-0.1-0.4-0.1-0.8,3.7-4.9c3.7-4,4.3-4.1,4.5-4.2c0.9-0.3,7.1-0.1,8.1,0
	c1,0.1,2.7,0.8,4.4,1.6c0.9,0.4,2.2,1,2.5,1c0,0,0,0-0.1,0l0.4,1.5c-0.6,0.2-1.4-0.2-3.4-1.1c-1.4-0.6-3.1-1.4-3.8-1.4
	c-1.9-0.1-6.7-0.2-7.5,0c-1,0.7-6.1,6.1-7,7.5c0.2,0.4,0.8,1.1,1.5,1.4c0.4,0.2,0.9,0.1,1.3-0.2c0.6-0.5,1.4-1.3,2.1-2.1
	c2-2.1,2.4-2.4,2.9-2.4c0.1,0,0.2,0,0.3,0c1.1,0,2.4-0.1,3,0.3l0.2,0.1l0.3,0.6c6.4,11.1,6.3,11.3,6.2,11.8l0,0.1
	C30.2,30.5,28.7,31.1,27.4,31.1z"/>
<rect fill="#FFFFFF" x="30" y="26.8" width="4" height="1.6"/>
<path fill="#FFFFFF" d="M23.8,32.2c-2,0-3.8-2-5.4-6c0-0.1,0-0.1,0-0.1l1.4-0.8c0,0,0.1,0.2,0.1,0.3c1.9,4.5,3.4,5.1,4.1,5l0.2,1.6
	C24,32.2,23.9,32.2,23.8,32.2z"/>
<path fill="#FFFFFF" d="M14.2,34.1c-2.3,0-4-3.9-5.2-6.8c-0.2-0.5-0.4-1-0.6-1.3C8,26,7.5,26,7,26c-0.2,0-0.4,0-0.6,0v-1.6c0.1,0,0.4,0,0.6,0
	c0.5,0,1.3,0.1,1.6,0c0.8-0.2,1,0.4,1.8,2.3c0.6,1.5,2.6,6.1,4.2,5.8L15,34C14.8,34,14.7,34.1,14.2,34.1z"/>
<polygon fill="#FFFFFF" points="13.8,12 6.4,12 6.4,10.5 15.4,10.5 "/>
<path fill="#FFFFFF" d="M19.5,31.8c-0.7,0.1-2-0.4-3.7-4.2l-1.3,0.8c1.4,3.3,3.1,4.9,4.8,4.9c0.1,0,0.2,0,0.3,0L19.5,31.8z"/>
</svg>