<?xml version="1.0" encoding="utf-8"?>
<!-- Generator: Adobe Illustrator 18.0.0, SVG Export Plug-In . SVG Version: 6.00 Build 0)  -->
<!DOCTYPE svg PUBLIC "-//W3C//DTD SVG 1.1//EN" "http://www.w3.org/Graphics/SVG/1.1/DTD/svg11.dtd">
<svg version="1.1" id="Layer_1" xmlns="http://www.w3.org/2000/svg" xmlns:xlink="http://www.w3.org/1999/xlink" x="0px" y="0px"
	 width="40px" height="40px" viewBox="0 0 40 40" enable-background="new 0 0 40 40" xml:space="preserve">
<g>
	<path fill="#181918" d="M13.2,11.8h7.4c0.6,0,1-0.4,1-1s-0.4-1-1-1h-7.4c-0.6,0-1,0.4-1,1S12.7,11.8,13.2,11.8z"/>
	<path fill="#181918" d="M13.2,18.4h7.4c0.6,0,1-0.4,1-1s-0.4-1-1-1h-7.4c-0.6,0-1,0.4-1,1S12.7,18.4,13.2,18.4z"/>
	<path fill="#181918" d="M34.3,6.3C33.7,5.9,33,6,33,6v0.2c0,0,0,0.1,0,0.1V10v12.7V30v3.7c0,2.4-1.9,4.3-4.3,4.3h-3.7H14.9h-3.7
		C9,38,7.1,36.2,7,33.9h3.2h9h4.5c2.9,0,5.2-2.3,5.2-5.2V5.2c0-1-0.3-1.8-0.7-2.6c-0.1-0.2-0.3-0.4-0.4-0.6c-1-1.2-2.4-2-4.1-2h-8.6
		h-3.7h-1.1C7.3,0,4.9,2.3,4.9,5.2v1.1V10v18.7V30v1.9v1.8c0,0.1,0,0.2,0,0.2c0.1,3.4,2.9,6.1,6.3,6.1h3.7h10.1h3.7
		c3.5,0,6.3-2.8,6.3-6.3V30v-7.3V10c0-1.1,0-1.9,0-2.3C35.1,6.9,34.7,6.5,34.3,6.3z M6.9,30v-1.3V10V6.3V5.2C6.9,3.4,8.4,2,10.1,2
		h1.1h3.7h8.6c1.8,0,3.2,1.4,3.2,3.2v23.5c0,1.8-1.4,3.2-3.2,3.2h-4.5h-9H7.2H6.9V30z"/>
</g>
</svg>
