<?xml version="1.0" encoding="utf-8"?>
<!-- Generator: Adobe Illustrator 18.0.0, SVG Export Plug-In . SVG Version: 6.00 Build 0)  -->
<!DOCTYPE svg PUBLIC "-//W3C//DTD SVG 1.1//EN" "http://www.w3.org/Graphics/SVG/1.1/DTD/svg11.dtd">
<svg version="1.1" id="Layer_1" xmlns="http://www.w3.org/2000/svg" xmlns:xlink="http://www.w3.org/1999/xlink" x="0px" y="0px"
	 width="40px" height="40px" viewBox="0 0 40 40" enable-background="new 0 0 40 40" xml:space="preserve">
<g>
	<path fill="#169A5A" d="M31.8,7.3C29.4,3.1,24.9,0.5,20,0.5S10.6,3.1,8.2,7.3c-2.5,4.3-2.5,9.4,0,13.7l10.1,17.5c0.4,0.6,1,1,1.7,1
		s1.4-0.4,1.7-1L31.8,21C34.3,16.7,34.3,11.6,31.8,7.3z M20,37.5L9.9,20c-2.1-3.7-2.1-8,0-11.7C12,4.7,15.8,2.5,20,2.5
		c4.2,0,8,2.2,10.1,5.8c2.1,3.7,2.1,8,0,11.7L20,37.5z"/>
	<path fill="#169A5A" d="M25.3,10c-1.2-1.3-2.9-2-4.7-2c-1.8,0-3.4,0.7-4.6,2c-0.4,0.4-0.7,0.8-0.9,1.2c-0.6,1-0.9,2.1-0.9,3.2
		c0,1.1,0.3,2.2,0.9,3.2l1.6,2.6l1.3-1.8l-1.1-1.8c-0.8-1.4-0.8-3,0-4.4c0.8-1.4,2.2-2.2,3.8-2.2c1.6,0,3,0.8,3.8,2.2
		c0.8,1.4,0.8,3,0,4.4l-5.4,9.3l1.3,1.8l5.8-10.1l0,0c0.6-1,0.9-2.1,0.9-3.2c0-1.1-0.3-2.2-0.9-3.2C26,10.7,25.7,10.4,25.3,10z"/>
</g>
</svg>
