<?xml version="1.0" encoding="utf-8"?>
<!-- Generator: Adobe Illustrator 18.0.0, SVG Export Plug-In . SVG Version: 6.00 Build 0)  -->
<!DOCTYPE svg PUBLIC "-//W3C//DTD SVG 1.1//EN" "http://www.w3.org/Graphics/SVG/1.1/DTD/svg11.dtd">
<svg version="1.1" id="Layer_1" xmlns="http://www.w3.org/2000/svg" xmlns:xlink="http://www.w3.org/1999/xlink" x="0px" y="0px"
	 width="40px" height="40px" viewBox="0 0 40 40" enable-background="new 0 0 40 40" xml:space="preserve">
<g id="g10" transform="matrix(1.3333333,0,0,-1.3333333,0,53.333333)">
	<g id="g12" transform="scale(0.1)">
		<path id="path16" fill="#181918" d="M43,315.7c-21.7,0-39.3-17.6-39.3-39.3v-52.8c0-21.6,17.6-39.3,39.3-39.3h253.2v24.2H43
			c-8.3,0-15.1,6.8-15.1,15.1v16.3h260.7v24.2H27.9v12.4c0,8.3,6.8,15.1,15.1,15.1h253.2v24.2H43"/>
	</g>
</g>
</svg>
