<?xml version="1.0" encoding="UTF-8" standalone="no"?>
<svg
   xmlns:dc="http://purl.org/dc/elements/1.1/"
   xmlns:cc="http://creativecommons.org/ns#"
   xmlns:rdf="http://www.w3.org/1999/02/22-rdf-syntax-ns#"
   xmlns:svg="http://www.w3.org/2000/svg"
   xmlns="http://www.w3.org/2000/svg"
   viewBox="0 0 53.333332 53.333332"
   height="53.333332"
   width="53.333332"
   xml:space="preserve"
   id="svg2"
   version="1.1"><metadata
     id="metadata8"><rdf:RDF><cc:Work
         rdf:about=""><dc:format>image/svg+xml</dc:format><dc:type
           rdf:resource="http://purl.org/dc/dcmitype/StillImage" /></cc:Work></rdf:RDF></metadata><defs
     id="defs6"><clipPath
       id="clipPath18"
       clipPathUnits="userSpaceOnUse"><path
         id="path16"
         d="M 0,40 H 40 V 0 H 0 Z" /></clipPath></defs><g
     transform="matrix(1.3333333,0,0,-1.3333333,0,53.333333)"
     id="g10"><g
       id="g12"><g
         clip-path="url(#clipPath18)"
         id="g14"><g
           transform="translate(37.7789,17.4644)"
           id="g20"><path
             id="path22"
             style="fill:#f7d727;fill-opacity:1;fill-rule:nonzero;stroke:none"
             d="m 0,0 c 0,10.332 -8.871,14.493 -16.523,14.919 h -0.254 v 1 1.525 1 h 1.717 1 c 0.366,0 0.672,0.207 0.846,0.5 0.089,0.15 0.154,0.314 0.154,0.5 0,0.551 -0.448,1 -1,1 h -1 -2.435 -0.565 -0.435 -3 c -0.552,0 -1,-0.449 -1,-1 0,-0.186 0.065,-0.35 0.154,-0.5 0.174,-0.293 0.48,-0.5 0.846,-0.5 h 2.718 v -1 -1.527 -1 -0.998 -1 l 2.198,0.002 C -5.83,12.32 -2,5.853 -2,0 V -1.964 H -33.555 V 0 c 0,5.522 3.415,11.586 12.778,12.757 v 1.999 C -27.939,13.844 -35.555,9.576 -35.555,0 V -3.964 H 0 Z" /></g><g
           transform="translate(2.671,5.0992)"
           id="g24"><path
             id="path26"
             style="fill:#f7d727;fill-opacity:1;fill-rule:nonzero;stroke:none"
             d="M 0,0 C 0.001,0.009 0.002,0.019 0.005,0.027 L 1.3,4.401 h 32.061 l 1.285,-4.333 c 0.007,-0.029 0.012,-0.054 0.015,-0.076 z m 36.575,0.596 -1.72,5.805 H -0.193 L -1.924,0.555 c -0.174,-0.694 -0.058,-1.345 0.325,-1.835 0.366,-0.469 0.93,-0.728 1.587,-0.728 h 34.685 c 0.658,0 1.222,0.259 1.587,0.728 0.384,0.49 0.499,1.142 0.315,1.876" /></g></g></g></g></svg>