<?xml version="1.0" encoding="UTF-8" standalone="no"?>
<svg
   xmlns:dc="http://purl.org/dc/elements/1.1/"
   xmlns:cc="http://creativecommons.org/ns#"
   xmlns:rdf="http://www.w3.org/1999/02/22-rdf-syntax-ns#"
   xmlns:svg="http://www.w3.org/2000/svg"
   xmlns="http://www.w3.org/2000/svg"
   viewBox="0 0 53.333332 53.333332"
   height="53.333332"
   width="53.333332"
   xml:space="preserve"
   id="svg2"
   version="1.1"><metadata
     id="metadata8"><rdf:RDF><cc:Work
         rdf:about=""><dc:format>image/svg+xml</dc:format><dc:type
           rdf:resource="http://purl.org/dc/dcmitype/StillImage" /></cc:Work></rdf:RDF></metadata><defs
     id="defs6"><clipPath
       id="clipPath18"
       clipPathUnits="userSpaceOnUse"><path
         id="path16"
         d="M 0,40 H 40 V 0 H 0 Z" /></clipPath></defs><g
     transform="matrix(1.3333333,0,0,-1.3333333,0,53.333333)"
     id="g10"><g
       id="g12"><g
         clip-path="url(#clipPath18)"
         id="g14"><g
           transform="translate(38.583,32.7002)"
           id="g20"><path
             id="path22"
             style="fill:#000000;fill-opacity:1;fill-rule:nonzero;stroke:none"
             d="M 0,0 -3.797,3.795 -8.21,-0.608 C -8.344,-0.709 -8.436,-0.799 -8.533,-0.921 L -8.6,-1.016 c -0.106,-0.214 -0.167,-0.449 -0.167,-0.686 0,-0.179 0.047,-0.338 0.099,-0.499 l 0.062,-0.086 c 0.275,-0.22 0.491,-0.483 0.699,-0.85 0.033,-0.055 0.064,-0.109 0.089,-0.168 0.136,-0.32 0.206,-0.663 0.206,-1.015 0,-1.442 -1.174,-2.615 -2.617,-2.615 -1.442,0 -2.615,1.173 -2.615,2.615 0,1.442 1.173,2.615 2.615,2.615 h 0.193 l -0.004,2.346 h -0.189 c -2.735,0 -4.959,-2.225 -4.959,-4.961 0,-2.735 2.224,-4.96 4.959,-4.96 2.736,0 4.961,2.225 4.961,4.96 0,0.707 -0.153,1.397 -0.455,2.049 -0.047,0.102 -0.095,0.201 -0.148,0.298 l -0.087,0.163 2.145,2.147 1.546,-1.545 c 0.107,-0.105 0.169,-0.255 0.169,-0.41 v -8.698 c 0,-0.156 -0.059,-0.302 -0.169,-0.411 l -17.532,-17.532 c -0.212,-0.212 -0.609,-0.211 -0.82,0 l -13.533,13.533 c -0.226,0.227 -0.226,0.594 -10e-4,0.821 l 17.517,17.518 c 0.11,0.109 0.255,0.169 0.41,0.169 h 8.256 l 2.087,2.087 -0.013,0.012 c -0.23,0.227 -0.535,0.353 -0.858,0.354 L -17.115,6.232 C -17.367,6.205 -17.629,6.08 -17.827,5.881 l -19.338,-19.338 c -0.476,-0.478 -0.476,-1.254 0,-1.731 l 16.082,-16.082 c 0.466,-0.47 1.262,-0.481 1.748,-0.001 l 19.319,19.334 c 0.235,0.228 0.366,0.534 0.371,0.866 V -0.879 C 0.359,-0.553 0.229,-0.233 0,0" /></g></g></g></g></svg>