<?xml version="1.0" encoding="utf-8"?>
<!-- Generator: Adobe Illustrator 18.0.0, SVG Export Plug-In . SVG Version: 6.00 Build 0)  -->
<!DOCTYPE svg PUBLIC "-//W3C//DTD SVG 1.1//EN" "http://www.w3.org/Graphics/SVG/1.1/DTD/svg11.dtd">
<svg version="1.1" id="registrationfees" xmlns="http://www.w3.org/2000/svg" xmlns:xlink="http://www.w3.org/1999/xlink" x="0px"
	 y="0px" viewBox="0 0 40 40" enable-background="new 0 0 40 40" xml:space="preserve">
<g>
	<path fill="none" stroke="#231F20" stroke-width="2" stroke-miterlimit="10" d="M7,14.9v21.6c0,1.1,0.9,2,2,2h21.9c1.1,0,2-0.9,2-2
		v-33c0-1.1-0.9-2-2-2H16.5c-1,0-2,0.4-2.7,1.1L7.2,9.2c-0.5,0.5-0.1,1.3,0.5,1.3h7.7c0.4,0,0.8-0.3,0.8-0.8l0-8.3"/>
	<path fill="none" stroke="#231F20" stroke-width="2" stroke-miterlimit="10" d="M23.3,19.7c0-1.8-1.5-3.3-3.3-3.3s-3.3,1.5-3.3,3.3
		c0,1.8,1.5,3.3,3.3,3.3c1.8,0,3.3,1.5,3.3,3.3c0,1.8-1.5,3.3-3.3,3.3s-3.3-1.5-3.3-3.3"/>
	<line fill="none" stroke="#231F20" stroke-width="2" stroke-miterlimit="10" x1="20" y1="16.4" x2="20" y2="13.1"/>
	<line fill="none" stroke="#231F20" stroke-width="2" stroke-miterlimit="10" x1="20" y1="32.8" x2="20" y2="29.5"/>
</g>
</svg>
