<?xml version="1.0" encoding="utf-8"?>
<!-- Generator: Adobe Illustrator 18.0.0, SVG Export Plug-In . SVG Version: 6.00 Build 0)  -->
<!DOCTYPE svg PUBLIC "-//W3C//DTD SVG 1.1//EN" "http://www.w3.org/Graphics/SVG/1.1/DTD/svg11.dtd">
<svg version="1.1" id="airport" xmlns="http://www.w3.org/2000/svg" xmlns:xlink="http://www.w3.org/1999/xlink" x="0px" y="0px"
	 viewBox="0 0 40 40" enable-background="new 0 0 40 40" xml:space="preserve">
<g>
	<path fill="#FFFFFF" d="M37,5.1l-2,0.1c-1.8,0.1-3.5,0.9-4.8,2.2l-3.8,3.8H10.3c-1.5,0-2.8,1.2-2.8,2.8c0,1.8,1,2.5,2.6,3l3.6,1
		l1.3-1.4l-4.4-1C9.5,15.1,9,14.9,9,14c0-0.7,0.6-1.2,1.2-1.2h14.7l-12.8,13c-0.6,0.7-1.5,1-2.4,1H3.2c-1.3,0-3,1.1-3.1,2.3
		c-0.1,0.4,0,1.5,1.7,2l9.4,3.3c1.7,0.6,3.8,0.1,5.1-1.2l9.1-9.3l1.5,7.6c0.5,2.5,1.9,3.4,3.1,3.4c1.5,0,2.7-1.4,2.8-3.1l0-14.8
		c0-0.4,0.2-0.9,0.5-1.2l5.8-5.8c0.8-0.8,1.1-2.1,0.6-3.2C39.2,5.8,38.2,5.1,37,5.1z M37.9,8.9l-5.8,5.8c-0.6,0.6-0.9,1.4-0.9,2.3
		l0,14.7c0,1-0.6,1.6-1.2,1.6c-0.6,0-1.3-0.6-1.6-2.1l-1.6-8c-0.2-0.6-0.7-1-1.4-1c-0.4,0-0.7,0.1-1,0.4l-9.4,9.5
		c-0.9,0.9-2.3,1.2-3.4,0.8L1.1,29.2l1.6-0.7c0.2-0.1,0.4-0.1,0.6-0.1h6.5c1.3,0,2.6-0.5,3.5-1.5L31.4,8.5c1-1,2.4-1.6,3.8-1.7
		L37,6.6c0.6,0,1,0.3,1.2,0.8C38.4,7.9,38.4,8.5,37.9,8.9z"/>
</g>
</svg>
