<?xml version="1.0" encoding="utf-8"?>
<!-- Generator: Adobe Illustrator 18.0.0, SVG Export Plug-In . SVG Version: 6.00 Build 0)  -->
<!DOCTYPE svg PUBLIC "-//W3C//DTD SVG 1.1//EN" "http://www.w3.org/Graphics/SVG/1.1/DTD/svg11.dtd">
<svg version="1.1" id="hybrid-2" xmlns="http://www.w3.org/2000/svg" xmlns:xlink="http://www.w3.org/1999/xlink" x="0px" y="0px"
	 viewBox="0 0 40 40" enable-background="new 0 0 40 40" xml:space="preserve">
<g>
	<path fill="#FFFFFF" d="M31.5,26.6c-0.1,0-0.2,0-0.2,0c-0.8-0.1-1.4-0.4-1.9-1l1.1-0.9c0.2,0.3,0.6,0.5,1,0.5
		c0.7,0.1,1.5-0.5,1.6-1.2c0.1-0.4,0-0.8-0.3-1.1c-0.3-0.3-0.7-0.5-1.1-0.5c-0.5,0-1.2,0.2-1.4,0.9c-0.2,0.7-0.9,1.3-1.6,1.3
		l-3.9-0.1l0-1.4l3.9,0.1c0.1,0,0.2-0.1,0.3-0.2c0.3-1.2,1.4-2,2.8-2c0.9,0,1.7,0.4,2.2,1c0.5,0.6,0.8,1.4,0.6,2.3
		C34.2,25.6,32.9,26.6,31.5,26.6z"/>
	<path fill="#FFFFFF" d="M38.6,24.6h-2.9v-1.4h2.6V23l-0.1-1.5c-0.1-1-0.6-1.4-2.3-2l-2.5-0.9c-0.6-0.1-1.2-0.3-1.7-0.7l-2.9-2
		c-1.2-0.8-2.3-1.2-5.1-1.2l-0.1,0c-1.3,0-2.6,0.2-3.7,0.5c-0.5,0.2-1,0.4-1.5,0.8c-0.1,0.1-0.3,0.3-0.5,0.4c-0.7,0.7-1.6,1.5-3,1.5
		h-1.4c-0.3,0-0.6,0.3-0.6,0.6h-1.4c0-1.1,0.9-2,2-2h1.4c0.8,0,1.4-0.6,2-1.1c0.2-0.2,0.3-0.3,0.5-0.5c0.6-0.5,1.3-0.9,2-1.1
		c1.2-0.4,2.7-0.6,4.1-0.6l0.1,0c3.1,0,4.4,0.5,5.8,1.5l2.9,2c0.3,0.2,0.7,0.4,1.1,0.4l0.1,0l2.6,0.9c1.6,0.5,3.1,1.2,3.3,3.2l0.1,2
		C39.7,24,39.2,24.6,38.6,24.6z"/>
	<path fill="#FFFFFF" d="M20.4,26.6C20.4,26.6,20.4,26.6,20.4,26.6c-0.9,0-1.6-0.4-2.2-1l1.1-0.9c0.3,0.3,0.6,0.5,1.1,0.5
		c0,0,0,0,0,0c0.7,0,1.3-0.5,1.4-1.2c0.1-0.4,0-0.8-0.3-1.2c-0.3-0.3-0.7-0.5-1.1-0.5c-0.5,0-1.2,0.2-1.4,1
		c-0.2,0.7-0.8,1.2-1.6,1.2l-3.4,0c-1.3,0-2.3-1-2.3-2.3c0-0.5-0.4-0.9-0.9-0.9h-0.4c-0.7,0-1.2,0.6-1.2,1.2c0,1.2-0.9,2.1-2.1,2.1
		H5c-0.8,0-1.4-0.6-1.4-1.4V18c0-0.8,0.6-1.4,1.4-1.4h1.9c1.2,0,2.1,0.9,2.1,2.1v1.6c0.4-0.2,0.8-0.3,1.2-0.3h0.4
		c1.3,0,2.3,1,2.3,2.3c0,0.5,0.4,0.9,0.9,0.9l3.4,0c0.1,0,0.3-0.1,0.3-0.2c0.3-1.3,1.4-2,2.8-2c0.9,0,1.7,0.4,2.2,1
		c0.5,0.6,0.8,1.4,0.6,2.3C23,25.6,21.8,26.6,20.4,26.6z M5,18l0,5.3h1.9c0.4,0,0.7-0.3,0.7-0.7v-3.9c0-0.4-0.3-0.7-0.7-0.7H5z"/>
	<rect x="0.3" y="21.6" fill="#FFFFFF" width="2" height="1.4"/>
	<rect x="0.3" y="18.3" fill="#FFFFFF" width="2" height="1.4"/>
</g>
</svg>
