<?xml version="1.0" encoding="utf-8"?>
<!-- Generator: Adobe Illustrator 18.0.0, SVG Export Plug-In . SVG Version: 6.00 Build 0)  -->
<!DOCTYPE svg PUBLIC "-//W3C//DTD SVG 1.1//EN" "http://www.w3.org/Graphics/SVG/1.1/DTD/svg11.dtd">
<svg version="1.1" id="vehicle" xmlns="http://www.w3.org/2000/svg" xmlns:xlink="http://www.w3.org/1999/xlink" x="0px" y="0px"
	 viewBox="0 0 40 40" enable-background="new 0 0 40 40" xml:space="preserve">
<g>
	<path fill="#FFFFFF" d="M29.1,27.6c-0.1,0-0.2,0-0.3,0c-1-0.1-1.9-0.6-2.4-1.5l1.1-0.7c0.3,0.5,0.8,0.8,1.4,0.9
		c1,0.1,2-0.7,2.1-1.7c0.1-0.6-0.1-1.1-0.4-1.6c-0.4-0.4-0.9-0.7-1.5-0.7c-0.7,0-1.6,0.2-1.9,1.3c-0.2,0.8-1,1.4-1.8,1.4h-9.8v-1.3
		h9.8c0.2,0,0.5-0.2,0.5-0.4c0.4-1.4,1.6-2.3,3.2-2.3c1,0,1.9,0.4,2.6,1.2c0.6,0.7,0.9,1.7,0.7,2.6C32.1,26.4,30.7,27.6,29.1,27.6z"
		/>
	<path fill="#FFFFFF" d="M11,27.6c-0.1,0-0.2,0-0.3,0c-1-0.1-1.9-0.6-2.4-1.5l1.1-0.7c0.3,0.5,0.8,0.8,1.4,0.9c1,0.1,2-0.7,2.1-1.7
		c0.1-0.6-0.1-1.1-0.4-1.6c-0.4-0.4-0.9-0.7-1.5-0.7c-0.7,0-1.6,0.2-1.9,1.3c-0.2,0.8-1,1.4-1.8,1.4H5.4c-1,0-2.1-0.2-3.1-0.7
		l-1.2-0.5c-0.6-0.3-1-0.9-1-1.6v-3.4c0-1.5,1.2-2.7,2.7-2.7h0.2c1.2-0.1,2.4-0.4,3.5-1l2.9-1.5c1.5-0.8,3.8-1.3,6.2-1.3l3.3,0
		c3.6,0,5.1,0.6,6.7,1.7l3.4,2.3c0.4,0.3,0.9,0.5,1.4,0.5l5.7,1.1c1.9,0.6,3.5,1.4,3.7,3.6l0.1,1.8l0,0.5c0,0.7-0.5,1.2-1.2,1.2
		h-5.1v-1.3h5v-0.3l-0.1-1.7c-0.1-1.2-0.7-1.7-2.8-2.4l-5.5-1c-0.7-0.1-1.3-0.3-1.9-0.7l-3.4-2.3c-1.4-1-2.7-1.4-5.9-1.4l-3.3,0
		c-2.1,0-4.3,0.4-5.6,1.1l-2.9,1.5c-1.3,0.7-2.7,1-4.1,1.1l-0.3,0c-0.8,0-1.4,0.6-1.4,1.4v3.4c0,0.2,0.1,0.3,0.2,0.4l1.2,0.5
		c0.9,0.4,1.7,0.6,2.5,0.6h1.8c0.2,0,0.5-0.2,0.5-0.4C8.1,21.9,9.3,21,11,21c1,0,1.9,0.4,2.6,1.2c0.6,0.7,0.9,1.7,0.7,2.6
		C14,26.4,12.6,27.6,11,27.6z"/>
</g>
</svg>
