<?xml version="1.0" encoding="utf-8"?>
<!-- Generator: Adobe Illustrator 18.0.0, SVG Export Plug-In . SVG Version: 6.00 Build 0)  -->
<!DOCTYPE svg PUBLIC "-//W3C//DTD SVG 1.1//EN" "http://www.w3.org/Graphics/SVG/1.1/DTD/svg11.dtd">
<svg version="1.1" id="globe-1" xmlns="http://www.w3.org/2000/svg" xmlns:xlink="http://www.w3.org/1999/xlink" x="0px" y="0px"
	 viewBox="0 0 40 40" enable-background="new 0 0 40 40" xml:space="preserve">
<g>
	<path d="M36.6,19L21,19V2.5l1,0.6c2.5,1.4,4.7,5.4,5.7,10.6h2c-0.6-3.3-1.6-6.2-2.9-8.4l-1.2-2l2.1,1c4,2,7.1,5.3,8.6,9.4h2.1
		C35.7,5.9,28.3,0.5,20,0.5c-8.6,0-16.3,5.8-18.7,14c-0.2,0.8-0.4,1.5-0.5,2.4l0,0.3c0,0.2-0.1,0.5-0.1,0.7
		c-0.1,0.8,0.2,1.5,0.7,2.1c0.5,0.6,1.3,0.9,2,0.9L19,21v16.4l-1-0.6c-2.6-1.4-4.8-5.6-5.7-10.9h-2c0.6,3.4,1.6,6.4,3,8.7l1.2,2
		l-2.1-1c-4-2-7.2-5.5-8.8-9.7H1.5C4.1,34,11.6,39.5,20,39.5c8.7,0,16.4-5.8,18.7-14.2c0.2-0.8,0.4-1.6,0.5-2.5l0-0.3
		c0-0.1,0-0.3,0.1-0.4c0.1-0.8-0.2-1.5-0.7-2.1C38.1,19.3,37.4,19,36.6,19z M19,19l-16.4,0l0.1-0.7c0-0.5,0.1-0.9,0.2-1.4
		c0.1-0.6,0.2-1.1,0.4-1.6c0.1-0.3,0.2-0.5,0.3-0.8l0.1-0.3c1.5-4.3,4.7-7.8,8.8-9.8l2.1-1l-1.2,2c-1.4,2.2-2.4,5.1-2.9,8.4h2
		c1-5.2,3.1-9.2,5.7-10.6l1-0.6V19z M37.4,21.8c0,0.4-0.1,0.7-0.2,1.1c-0.1,0.7-0.2,1.3-0.4,1.8c-0.1,0.2-0.1,0.4-0.2,0.6l-0.1,0.3
		c-1.5,4.4-4.7,8.1-8.9,10.1l-2.1,1l1.2-2c1.4-2.3,2.4-5.3,3-8.7h-2c-0.9,5.3-3.1,9.4-5.7,10.9l-1,0.6V21l16.4,0L37.4,21.8z"/>
</g>
</svg>
