<?xml version="1.0" encoding="utf-8"?>
<!-- Generator: Adobe Illustrator 18.0.0, SVG Export Plug-In . SVG Version: 6.00 Build 0)  -->
<!DOCTYPE svg PUBLIC "-//W3C//DTD SVG 1.1//EN" "http://www.w3.org/Graphics/SVG/1.1/DTD/svg11.dtd">
<svg version="1.1" id="filter-2" xmlns="http://www.w3.org/2000/svg" xmlns:xlink="http://www.w3.org/1999/xlink" x="0px" y="0px"
	 viewBox="0 0 40 40" enable-background="new 0 0 40 40" xml:space="preserve">
<g>
	<line fill="none" stroke="#231F20" stroke-width="2" stroke-miterlimit="10" x1="15.7" y1="6" x2="34" y2="6"/>
	<line fill="none" stroke="#231F20" stroke-width="2" stroke-miterlimit="10" x1="1.6" y1="6" x2="7.2" y2="6"/>
	<line fill="none" stroke="#231F20" stroke-width="2" stroke-miterlimit="10" x1="14.7" y1="34" x2="1.6" y2="34"/>
	<line fill="none" stroke="#231F20" stroke-width="2" stroke-miterlimit="10" x1="34" y1="34" x2="23.1" y2="34"/>
	<line fill="none" stroke="#231F20" stroke-width="2" stroke-miterlimit="10" x1="1.6" y1="20" x2="29.5" y2="20"/>
	<circle fill="none" stroke="#231F20" stroke-width="2" stroke-miterlimit="10" cx="11.6" cy="6" r="4.4"/>
	<circle fill="none" stroke="#231F20" stroke-width="2" stroke-miterlimit="10" cx="34" cy="20" r="4.4"/>
	<circle fill="none" stroke="#231F20" stroke-width="2" stroke-miterlimit="10" cx="19.1" cy="34" r="4.4"/>
</g>
</svg>
