<?xml version="1.0" encoding="utf-8"?>
<!-- Generator: Adobe Illustrator 18.0.0, SVG Export Plug-In . SVG Version: 6.00 Build 0)  -->
<!DOCTYPE svg PUBLIC "-//W3C//DTD SVG 1.1//EN" "http://www.w3.org/Graphics/SVG/1.1/DTD/svg11.dtd">
<svg version="1.1" id="traffic-cone" xmlns="http://www.w3.org/2000/svg" xmlns:xlink="http://www.w3.org/1999/xlink" x="0px"
	 y="0px" viewBox="0 0 40 40" enable-background="new 0 0 40 40" xml:space="preserve">
<g>
	<path d="M38.6,31.5l-2.1,2.1c-1.1,1.1-2.6,1.7-4.2,1.7H8.2c-1.6,0-3.1-0.6-4.2-1.7L1.4,31l-1.3,1.3l2.6,2.6
		c1.5,1.5,3.4,2.3,5.5,2.3h24.1c2.1,0,4-0.8,5.5-2.3l2.1-2.1L38.6,31.5z"/>
	<path d="M9.9,31.5h20.7c0.5,0,1-0.3,1.3-0.7c0.3-0.4,0.3-1,0.1-1.4L29.4,23c-0.1-0.1-0.1-0.3-0.3-0.4C28.9,22.2,28.4,22,28,22
		l-14.6,0l2.3-5.8h8.6c0.5,0,1-0.3,1.3-0.7c0.3-0.4,0.3-1,0.2-1.4L21.7,3.8c-0.2-0.6-0.8-1-1.4-1c-0.6,0-1.2,0.4-1.4,1l-7.2,17.9
		c-0.1,0.1-0.1,0.3-0.1,0.5c0,0.4,0.1,0.7,0.2,1c0.3,0.4,0.8,0.7,1.3,0.7l14.8,0l2.4,5.8H8.4c-0.1,0.4,0,0.8,0.2,1.2
		C8.9,31.2,9.4,31.5,9.9,31.5z M20.2,5.1l3.7,9.2l-3.7,0l-3.7,0L20.2,5.1z"/>
</g>
</svg>
