<?xml version="1.0" encoding="utf-8"?>
<!-- Generator: Adobe Illustrator 16.0.4, SVG Export Plug-In . SVG Version: 6.00 Build 0)  -->
<!DOCTYPE svg PUBLIC "-//W3C//DTD SVG 1.1//EN" "http://www.w3.org/Graphics/SVG/1.1/DTD/svg11.dtd">
<svg version="1.1" id="Layer_1" xmlns="http://www.w3.org/2000/svg" xmlns:xlink="http://www.w3.org/1999/xlink" x="0px" y="0px"
	 width="40.449px" height="40.017px" viewBox="0 0 40.449 40.017" enable-background="new 0 0 40.449 40.017" xml:space="preserve">
<path fill="#149A5A" d="M35.35,33.04c0,2.308-1.878,4.186-4.186,4.186H6.977c-2.308,0-4.186-1.878-4.186-4.186V8.853
	c0-2.308,1.878-4.186,4.186-4.186h13.12V1.875H6.977C3.13,1.875,0,5.005,0,8.853V33.04c0,3.847,3.13,6.977,6.977,6.977h24.187
	c3.847,0,6.977-3.13,6.977-6.977V19.722H35.35V33.04z"/>
<polygon fill="#149A5A" points="27.149,0 27.149,2.791 35.194,2.791 18.478,19.507 20.451,21.48 37.658,4.273 37.658,11.877 
	40.449,11.877 40.449,0 "/>
</svg>
