<?xml version="1.0" encoding="utf-8"?>
<!-- Generator: Adobe Illustrator 18.0.0, SVG Export Plug-In . SVG Version: 6.00 Build 0)  -->
<!DOCTYPE svg PUBLIC "-//W3C//DTD SVG 1.1//EN" "http://www.w3.org/Graphics/SVG/1.1/DTD/svg11.dtd">
<svg version="1.1" id="specs-satelliteradio" xmlns="http://www.w3.org/2000/svg" xmlns:xlink="http://www.w3.org/1999/xlink"
	 x="0px" y="0px" viewBox="0 0 40 40" enable-background="new 0 0 40 40" xml:space="preserve">
<g>
	<path fill="none" stroke="#FFFFFF" stroke-width="2" d="M20.9,1.3c9.8,0,17.8,8,17.8,17.8"/>
	<path fill="none" stroke="#FFFFFF" stroke-width="2" d="M20.9,7.8c6.3,0,11.3,5.1,11.3,11.3"/>
	<path fill="none" stroke="#FFFFFF" stroke-width="2" d="M21.1,34.5c0.3,0.3,0.3,0.9,0,1.2c-4.7,4.1-11.8,3.9-16.2-0.6
		S0.1,23.6,4.2,18.9c0.3-0.4,0.9-0.4,1.2,0L21.1,34.5z"/>
	<circle fill="none" stroke="#FFFFFF" stroke-width="2" cx="21.4" cy="18.6" r="3.3"/>
	<line fill="none" stroke="#FFFFFF" stroke-width="2" x1="19.1" y1="20.8" x2="12.8" y2="27.1"/>
</g>
</svg>
