<?xml version="1.0" encoding="utf-8"?>
<!-- Generator: Adobe Illustrator 18.0.0, SVG Export Plug-In . SVG Version: 6.00 Build 0)  -->
<!DOCTYPE svg PUBLIC "-//W3C//DTD SVG 1.1//EN" "http://www.w3.org/Graphics/SVG/1.1/DTD/svg11.dtd">
<svg version="1.1" id="dolly" xmlns="http://www.w3.org/2000/svg" xmlns:xlink="http://www.w3.org/1999/xlink" x="0px" y="0px"
	 viewBox="0 0 40 40" enable-background="new 0 0 40 40" xml:space="preserve">
<g>
	<path fill="none" stroke="#231F20" stroke-width="1.396" d="M26.5,21.1l4.8-4.8c0.5-0.5,0.5-1.2,0-1.7l-7.3-7.3
		c-0.5-0.5-1.2-0.5-1.7,0L17.4,12c-0.5,0.5-0.5,1.2,0,1.7l7.3,7.3C25.2,21.5,26,21.5,26.5,21.1z"/>
	<line fill="none" stroke="#231F20" stroke-width="1.396" x1="39" y1="15.9" x2="30.3" y2="24.7"/>
	<path fill="none" stroke="#231F20" stroke-width="1.396" d="M1,11.7l0.9-0.9c1.4-1.4,3.7-1.4,5.1,0l15.7,15.7
		c0.7,0.7,1.1,1.7,0.7,2.7c-0.1,0.3-0.2,0.6-0.2,1c0,1.9,1.7,3.3,3.6,3c1.2-0.2,2.2-1.2,2.4-2.4c0.3-1.9-1.1-3.6-3-3.6"/>
</g>
</svg>
