<?xml version="1.0" encoding="utf-8"?>
<!-- Generator: Adobe Illustrator 18.1.1, SVG Export Plug-In . SVG Version: 6.00 Build 0)  -->
<svg version="1.1" id="Layer_1" xmlns="http://www.w3.org/2000/svg" xmlns:xlink="http://www.w3.org/1999/xlink" x="0px" y="0px"
	 viewBox="0 0 40 40" enable-background="new 0 0 40 40" xml:space="preserve">
<g>
	<path fill="#169a5a" d="M37.1,32.8h-2.8c-0.9,0-1.6-0.7-1.6-1.6v-0.8H19.4v0.8c0,0.9-0.7,1.6-1.6,1.6H15c-0.9,0-1.6-0.7-1.6-1.6
		v-6.8c0,0,0-1,0.2-1.3h0c0,0,0.1-0.1,0.2-0.4h-0.3c-0.4,0-0.8-0.2-1.1-0.6c-0.3-0.4-0.4-1-0.2-1.5l0.3-1c0.3-0.8,1.1-1.4,1.9-1.4
		h0.7c0.7-1.9,1.4-3.7,1.6-4.1c0.6-1.1,1.7-1.4,2.6-1.7c0.2-0.1,0.4-0.1,0.5-0.2c0.1,0,1.5-0.4,6.1-0.4c4.5,0,6,0.4,6,0.4
		c0.1,0,0.2,0.1,0.3,0.1c0.9,0.2,2.3,0.6,2.8,1.8c0.2,0.5,0.9,2.2,1.6,4.1h0.7c0.8,0,1.7,0.6,1.9,1.4l0.3,1c0.2,0.5,0.1,1.1-0.2,1.5
		c-0.3,0.4-0.6,0.6-1.1,0.6h-0.2c0.1,0.3,0.2,0.4,0.2,0.4c0.2,0.3,0.2,1.3,0.2,1.3v6.8C38.7,32.1,38,32.8,37.1,32.8z M18.1,29.1
		h15.8v2c0,0.2,0.2,0.4,0.4,0.4h2.8c0.2,0,0.4-0.2,0.4-0.4v-6.8c0-0.1-0.1-0.6-0.1-0.7c-0.1-0.1-0.3-0.6-0.5-1.4l-0.3-0.8h2
		c0,0,0.1-0.2,0.1-0.4l-0.3-1c-0.1-0.3-0.5-0.6-0.8-0.6h-1.6L35.8,19c-0.7-2.1-1.5-3.9-1.7-4.4c-0.3-0.6-1.2-0.9-1.9-1
		c-0.1,0-0.3-0.1-0.4-0.1c0,0-1.4-0.4-5.7-0.4c-4.3,0-5.7,0.4-5.7,0.4c-0.2,0.1-0.3,0.1-0.5,0.2c-0.8,0.2-1.6,0.5-1.9,1.1
		C17.8,15,17,16.8,16.3,19l-0.1,0.4h-1.6c-0.3,0-0.6,0.3-0.8,0.6l-0.3,1c-0.1,0.2,0,0.4,0.1,0.4l2.1,0l-0.3,0.8
		c-0.3,0.9-0.5,1.3-0.5,1.4c0,0.1-0.1,0.6-0.1,0.7v6.8c0,0.2,0.2,0.4,0.4,0.4h2.8c0.2,0,0.4-0.2,0.4-0.4V29.1z"/>
</g>
<path fill="#169a5a" d="M33.8,26.4h-1.1c-1.3,0-2.3-1-2.3-2.3s1-2.3,2.3-2.3h1.1c1.3,0,2.3,1,2.3,2.3S35.1,26.4,33.8,26.4z M32.8,23
	c-0.6,0-1.1,0.5-1.1,1.1s0.5,1.1,1.1,1.1h1.1c0.6,0,1.1-0.5,1.1-1.1S34.4,23,33.8,23H32.8z"/>
<path fill="#169a5a" d="M19.4,26.4h-1.1c-1.3,0-2.3-1-2.3-2.3s1-2.3,2.3-2.3h1.1c1.3,0,2.3,1,2.3,2.3S20.7,26.4,19.4,26.4z M18.3,23
	c-0.6,0-1.1,0.5-1.1,1.1s0.5,1.1,1.1,1.1h1.1c0.6,0,1.1-0.5,1.1-1.1S20,23,19.4,23H18.3z"/>
<g>
	<path fill="#169a5a" d="M5.2,24.3H2.8c-0.8,0-1.5-0.7-1.5-1.5V17c0,0,0-0.8,0.2-1.2c0,0,0,0,0,0c0,0,0-0.1,0.1-0.2H1.5
		c-0.4,0-0.8-0.2-1-0.5c-0.3-0.4-0.3-0.9-0.2-1.4l0.3-0.9c0.3-0.7,1-1.3,1.8-1.3h0.6c0.6-1.7,1.2-3.1,1.4-3.5c0.5-1,1.5-1.3,2.3-1.5
		c0.2,0,0.3-0.1,0.4-0.1C7.2,6.4,8.5,6,12.3,6c3.9,0,5.1,0.3,5.2,0.4c0.1,0,0.2,0,0.3,0.1c0.8,0.2,2,0.5,2.5,1.6
		c0.1,0.3,0.5,1.1,0.9,2.1c0.2,0.5,0.4,1.2,0.7,1.8l-1.2,0.4c-0.2-0.6-0.4-1.2-0.7-1.8c-0.4-1-0.7-1.8-0.8-2.1
		c-0.2-0.5-1-0.7-1.6-0.8c-0.1,0-0.2-0.1-0.3-0.1c0,0-1.2-0.3-4.9-0.3c-3.7,0-4.9,0.3-4.9,0.3C7.3,7.7,7.2,7.7,7,7.8
		C6.3,8,5.7,8.2,5.4,8.6C5.3,8.9,4.6,10.5,4,12.4l-0.1,0.4H2.4c-0.2,0-0.5,0.2-0.6,0.4l-0.3,0.9c0,0.1,0,0.2,0,0.2l1.8,0l-0.3,0.8
		c-0.2,0.7-0.4,1.1-0.5,1.2c0,0.1-0.1,0.5-0.1,0.6v5.9c0,0.1,0.1,0.2,0.2,0.2h2.4c0.1,0,0.2-0.1,0.2-0.2V21h5.2v1.3H6.7v0.6
		C6.7,23.7,6,24.3,5.2,24.3z"/>
</g>
<path fill="#169a5a" d="M6.7,18.8h-1c-1.1,0-2.1-0.9-2.1-2.1v-0.1c0-1.1,0.9-2.1,2.1-2.1h1c1.1,0,2.1,0.9,2.1,2.1v0.1
	C8.7,17.9,7.8,18.8,6.7,18.8z M5.6,15.9c-0.4,0-0.8,0.4-0.8,0.8v0.1c0,0.4,0.4,0.8,0.8,0.8h1c0.4,0,0.8-0.4,0.8-0.8v-0.1
	c0-0.4-0.4-0.8-0.8-0.8H5.6z"/>
</svg>
