<?xml version="1.0" encoding="utf-8"?>
<!-- Generator: Adobe Illustrator 18.0.0, SVG Export Plug-In . SVG Version: 6.00 Build 0)  -->
<!DOCTYPE svg PUBLIC "-//W3C//DTD SVG 1.1//EN" "http://www.w3.org/Graphics/SVG/1.1/DTD/svg11.dtd">
<svg version="1.1" xmlns="http://www.w3.org/2000/svg" xmlns:xlink="http://www.w3.org/1999/xlink" x="0px" y="0px"
	 viewBox="0 0 612 792" enable-background="new 0 0 612 792" xml:space="preserve">
<g id="Layer_1">
</g>
<g id="Layer_2">
	<g>
		<path fill="#231F20" d="M309.4,87.2c-11.5,0.3-22.5,6-30.7,16c-18.2,22.5-177.3,223.8-150.3,352.3c7.3,34.7,28.2,61.8,60.5,78.5
			c12.5,6.5,26.5,9.9,40.4,9.9c27.8,0,54.2-13.5,70.8-36.1l69.6-96c3.8-8.4,3.1-19.2-2.4-27.9c-5.3-8.3-14.3-13.3-23.9-13.3h-68
			l53.3-78.4l-18.8-34l-71.1,105c-4.1,8.7-3.6,19.6,2,28.5c5.3,8.4,14.3,13.5,24,13.5h67.5l-60.1,82.1c-15,20.6-44.7,27.7-67.4,16
			c-23.4-12.1-37.3-30-42.5-54.8c-18.9-89.8,79.3-243.2,140.3-319.7l8.4-10.5l8.8,10.1c56.6,64.9,169.3,239.5,135.3,335.3
			c-12.3,34.7-43.1,55.6-94.2,64c-37.6,6.2-67.1,40.7-67.1,78.7v113.4h34.6V606.4c0-20.4,17.8-41.2,38-44.6
			c79.5-13,109.8-54.3,121.3-86.6c43.8-123.6-105.3-328.5-144.6-372.7C334.7,92.9,322.7,87.4,309.4,87.2z"/>
	</g>
</g>
</svg>
